(Exported by FreeCAD)
(Post Processor: mach3_mach4_post)
(Output Time:2023-08-31 09:07:10.547021)
(begin preamble)
G17 G54 G40 G49 G80 G90
G21
(begin operation: G54)
(machine: mach3_4, mm/min)
G54
G0 Z25.000
(finish operation: G54)
(begin operation: 8mmendmill001)
(machine: mach3_4, mm/min)
(8mmendmill001)
M5
M6 T2 
G43 H2
(finish operation: 8mmendmill001)
(begin operation: Profile)
(machine: mach3_4, mm/min)
(Profile)
(Compensated Tool Path. Diameter: 8.0)
G0 Z25.000
G0 X154.081 Y153.510
G0 Z23.000
G1 X154.081 Y153.510 Z3.000 F800.000
G2 X217.319 Y-8.868 Z3.000 I-154.081 J-153.510 F800.000
G2 X212.021 Y-12.526 Z3.000 I-3.998 J0.125 F800.000
G3 X208.093 Y-11.254 Z3.000 I-19.514 J-53.555 F800.000
G3 X176.155 Y-118.594 Z3.000 I-15.294 J-53.871 F800.000
G2 X178.184 Y-124.726 Z3.000 I-1.226 J-3.808 F800.000
G2 X7.386 Y-217.374 Z3.000 I-178.184 J124.726 F800.000
G2 X-116.340 Y-183.770 Z3.000 I-7.386 J217.374 F800.000
G2 X-116.858 Y-177.353 Z3.000 I2.107 J3.400 F800.000
G3 X-113.792 Y-174.586 Z3.000 I-36.624 J43.677 F800.000
G3 X-190.783 Y-93.258 Z3.000 I-39.006 J40.180 F800.000
G2 X-197.108 Y-91.949 Z3.000 I-2.685 J2.965 F800.000
G2 X-100.979 Y192.638 Z3.000 I197.108 J91.949 F800.000
G2 X-95.163 Y189.879 Z3.000 I1.891 J-3.525 F800.000
G3 X-94.297 Y185.829 Z3.000 I56.137 J9.878 F800.000
G3 X14.629 Y211.847 Z3.000 I54.298 J13.702 F800.000
G2 X18.924 Y216.675 Z3.000 I3.909 J0.847 F800.000
G2 X154.081 Y153.510 Z3.000 I-18.924 J-216.675 F800.000
G1 X154.081 Y153.510 Z0.000 F800.000
G2 X217.319 Y-8.868 Z0.000 I-154.081 J-153.510 F800.000
G2 X212.021 Y-12.526 Z0.000 I-3.998 J0.125 F800.000
G3 X208.093 Y-11.254 Z0.000 I-19.514 J-53.555 F800.000
G3 X176.155 Y-118.594 Z0.000 I-15.294 J-53.871 F800.000
G2 X178.184 Y-124.726 Z0.000 I-1.226 J-3.808 F800.000
G2 X7.386 Y-217.374 Z0.000 I-178.184 J124.726 F800.000
G2 X-116.340 Y-183.770 Z0.000 I-7.386 J217.374 F800.000
G2 X-116.858 Y-177.353 Z0.000 I2.107 J3.400 F800.000
G3 X-113.792 Y-174.586 Z0.000 I-36.624 J43.677 F800.000
G3 X-190.783 Y-93.258 Z0.000 I-39.006 J40.180 F800.000
G2 X-197.108 Y-91.949 Z0.000 I-2.685 J2.965 F800.000
G2 X-100.979 Y192.638 Z0.000 I197.108 J91.949 F800.000
G2 X-95.163 Y189.879 Z0.000 I1.891 J-3.525 F800.000
G3 X-94.297 Y185.829 Z0.000 I56.137 J9.878 F800.000
G3 X14.629 Y211.847 Z0.000 I54.298 J13.702 F800.000
G2 X18.924 Y216.675 Z0.000 I3.909 J0.847 F800.000
G2 X154.081 Y153.510 Z0.000 I-18.924 J-216.675 F800.000
G0 Z25.000
G0 Z25.000
(finish operation: Profile)
(begin postamble)
M05
G17 G54 G90 G80 G40
M2
