(Exported by FreeCAD)
(Post Processor: mach3_mach4_post)
(Output Time:2023-08-30 17:29:57.184404)
(begin preamble)
G17 G54 G40 G49 G80 G90
G21
(begin operation: G54)
(machine: mach3_4, mm/min)
G54
G0 Z25.000
(finish operation: G54)
(begin operation: 8mmendmill003)
(machine: mach3_4, mm/min)
(8mmendmill002)
M5
M6 T2 
G43 H2
(finish operation: 8mmendmill003)
(begin operation: Profile)
(machine: mach3_4, mm/min)
(Profile)
(Compensated Tool Path. Diameter: 8.0)
G0 Z25.000
G0 X61.000 Y71.000
G0 Z23.000
G1 X61.000 Y71.000 Z17.000 F800.000
G1 X61.000 Y4.000 Z17.000 F800.000
G1 X-61.000 Y4.000 Z17.000 F800.000
G1 X-61.000 Y71.000 Z17.000 F800.000
G1 X61.000 Y71.000 Z17.000 F800.000
G1 X61.000 Y71.000 Z14.000 F800.000
G1 X61.000 Y4.000 Z14.000 F800.000
G1 X-61.000 Y4.000 Z14.000 F800.000
G1 X-61.000 Y71.000 Z14.000 F800.000
G1 X61.000 Y71.000 Z14.000 F800.000
G1 X61.000 Y71.000 Z11.000 F800.000
G1 X61.000 Y4.000 Z11.000 F800.000
G1 X-61.000 Y4.000 Z11.000 F800.000
G1 X-61.000 Y71.000 Z11.000 F800.000
G1 X61.000 Y71.000 Z11.000 F800.000
G1 X61.000 Y71.000 Z8.000 F800.000
G1 X61.000 Y4.000 Z8.000 F800.000
G1 X-61.000 Y4.000 Z8.000 F800.000
G1 X-61.000 Y71.000 Z8.000 F800.000
G1 X61.000 Y71.000 Z8.000 F800.000
G1 X61.000 Y71.000 Z5.000 F800.000
G1 X61.000 Y4.000 Z5.000 F800.000
G1 X-61.000 Y4.000 Z5.000 F800.000
G1 X-61.000 Y71.000 Z5.000 F800.000
G1 X61.000 Y71.000 Z5.000 F800.000
G1 X61.000 Y71.000 Z2.000 F800.000
G1 X61.000 Y4.000 Z2.000 F800.000
G1 X-61.000 Y4.000 Z2.000 F800.000
G1 X-61.000 Y71.000 Z2.000 F800.000
G1 X61.000 Y71.000 Z2.000 F800.000
G1 X61.000 Y71.000 Z0.000 F800.000
G1 X61.000 Y4.000 Z0.000 F800.000
G1 X-61.000 Y4.000 Z0.000 F800.000
G1 X-61.000 Y71.000 Z0.000 F800.000
G1 X61.000 Y71.000 Z0.000 F800.000
G0 Z25.000
G0 Z25.000
G0 X61.000 Y71.000
G0 X107.520 Y76.430
G0 X107.520 Y76.430 Z23.000
G1 X107.520 Y76.430 Z17.000 F800.000
G2 X133.033 Y108.095 Z17.000 I28.307 J3.304 F800.000
G2 X164.188 Y82.527 Z17.000 I2.793 J-28.362 F800.000
G2 X138.620 Y51.372 Z17.000 I-28.362 J-2.793 F800.000
G2 X107.520 Y76.430 Z17.000 I-2.793 J28.362 F800.000
G1 X107.520 Y76.430 Z14.000 F800.000
G2 X133.033 Y108.095 Z14.000 I28.307 J3.304 F800.000
G2 X164.188 Y82.527 Z14.000 I2.793 J-28.362 F800.000
G2 X138.620 Y51.372 Z14.000 I-28.362 J-2.793 F800.000
G2 X107.520 Y76.430 Z14.000 I-2.793 J28.362 F800.000
G1 X107.520 Y76.430 Z11.000 F800.000
G2 X133.033 Y108.095 Z11.000 I28.307 J3.304 F800.000
G2 X164.188 Y82.527 Z11.000 I2.793 J-28.362 F800.000
G2 X138.620 Y51.372 Z11.000 I-28.362 J-2.793 F800.000
G2 X107.520 Y76.430 Z11.000 I-2.793 J28.362 F800.000
G1 X107.520 Y76.430 Z8.000 F800.000
G2 X133.033 Y108.095 Z8.000 I28.307 J3.304 F800.000
G2 X164.188 Y82.527 Z8.000 I2.793 J-28.362 F800.000
G2 X138.620 Y51.372 Z8.000 I-28.362 J-2.793 F800.000
G2 X107.520 Y76.430 Z8.000 I-2.793 J28.362 F800.000
G1 X107.520 Y76.430 Z5.000 F800.000
G2 X133.033 Y108.095 Z5.000 I28.307 J3.304 F800.000
G2 X164.188 Y82.527 Z5.000 I2.793 J-28.362 F800.000
G2 X138.620 Y51.372 Z5.000 I-28.362 J-2.793 F800.000
G2 X107.520 Y76.430 Z5.000 I-2.793 J28.362 F800.000
G1 X107.520 Y76.430 Z2.000 F800.000
G2 X133.033 Y108.095 Z2.000 I28.307 J3.304 F800.000
G2 X164.188 Y82.527 Z2.000 I2.793 J-28.362 F800.000
G2 X138.620 Y51.372 Z2.000 I-28.362 J-2.793 F800.000
G2 X107.520 Y76.430 Z2.000 I-2.793 J28.362 F800.000
G1 X107.520 Y76.430 Z0.000 F800.000
G2 X133.033 Y108.095 Z0.000 I28.307 J3.304 F800.000
G2 X164.188 Y82.527 Z0.000 I2.793 J-28.362 F800.000
G2 X138.620 Y51.372 Z0.000 I-28.362 J-2.793 F800.000
G2 X107.520 Y76.430 Z0.000 I-2.793 J28.362 F800.000
G0 Z25.000
G0 Z25.000
G0 X107.520 Y76.430
G0 X-107.330 Y79.347
G0 X-107.330 Y79.347 Z23.000
G1 X-107.330 Y79.347 Z17.000 F800.000
G2 X-133.033 Y51.372 Z17.000 I-28.496 J0.387 F800.000
G2 X-164.188 Y76.940 Z17.000 I-2.793 J28.362 F800.000
G2 X-138.620 Y108.095 Z17.000 I28.362 J2.793 F800.000
G2 X-107.330 Y79.347 Z17.000 I2.793 J-28.362 F800.000
G1 X-107.330 Y79.347 Z14.000 F800.000
G2 X-133.033 Y51.372 Z14.000 I-28.496 J0.387 F800.000
G2 X-164.188 Y76.940 Z14.000 I-2.793 J28.362 F800.000
G2 X-138.620 Y108.095 Z14.000 I28.362 J2.793 F800.000
G2 X-107.330 Y79.347 Z14.000 I2.793 J-28.362 F800.000
G1 X-107.330 Y79.347 Z11.000 F800.000
G2 X-133.033 Y51.372 Z11.000 I-28.496 J0.387 F800.000
G2 X-164.188 Y76.940 Z11.000 I-2.793 J28.362 F800.000
G2 X-138.620 Y108.095 Z11.000 I28.362 J2.793 F800.000
G2 X-107.330 Y79.347 Z11.000 I2.793 J-28.362 F800.000
G1 X-107.330 Y79.347 Z8.000 F800.000
G2 X-133.033 Y51.372 Z8.000 I-28.496 J0.387 F800.000
G2 X-164.188 Y76.940 Z8.000 I-2.793 J28.362 F800.000
G2 X-138.620 Y108.095 Z8.000 I28.362 J2.793 F800.000
G2 X-107.330 Y79.347 Z8.000 I2.793 J-28.362 F800.000
G1 X-107.330 Y79.347 Z5.000 F800.000
G2 X-133.033 Y51.372 Z5.000 I-28.496 J0.387 F800.000
G2 X-164.188 Y76.940 Z5.000 I-2.793 J28.362 F800.000
G2 X-138.620 Y108.095 Z5.000 I28.362 J2.793 F800.000
G2 X-107.330 Y79.347 Z5.000 I2.793 J-28.362 F800.000
G1 X-107.330 Y79.347 Z2.000 F800.000
G2 X-133.033 Y51.372 Z2.000 I-28.496 J0.387 F800.000
G2 X-164.188 Y76.940 Z2.000 I-2.793 J28.362 F800.000
G2 X-138.620 Y108.095 Z2.000 I28.362 J2.793 F800.000
G2 X-107.330 Y79.347 Z2.000 I2.793 J-28.362 F800.000
G1 X-107.330 Y79.347 Z0.000 F800.000
G2 X-133.033 Y51.372 Z0.000 I-28.496 J0.387 F800.000
G2 X-164.188 Y76.940 Z0.000 I-2.793 J28.362 F800.000
G2 X-138.620 Y108.095 Z0.000 I28.362 J2.793 F800.000
G2 X-107.330 Y79.347 Z0.000 I2.793 J-28.362 F800.000
G0 Z25.000
G0 Z25.000
(finish operation: Profile)
(begin operation: Profile001)
(machine: mach3_4, mm/min)
(Profile001)
(Compensated Tool Path. Diameter: 8.0)
G0 Z25.000
G0 X153.796 Y153.796
G0 Z23.000
G1 X153.796 Y153.796 Z17.000 F800.000
G2 X189.471 Y-106.804 Z17.000 I-153.796 J-153.796 F800.000
G2 X174.019 Y-116.470 Z17.000 I-16.571 J9.307 F800.000
G2 X163.528 Y-114.029 Z17.000 I-1.117 J18.965 F800.000
G1 X48.024 Y-47.345 Z17.000 F800.000
G3 X-48.024 Y-47.345 Z17.000 I-48.024 J-83.128 F800.000
G1 X-163.402 Y-113.959 Z17.000 F800.000
G2 X-189.379 Y-106.961 Z17.000 I-9.498 J16.457 F800.000
G2 X-188.520 Y108.473 Z17.000 I189.370 J106.964 F800.000
G2 X153.796 Y153.796 Z17.000 I188.520 J-108.473 F800.000
G1 X153.796 Y153.796 Z14.000 F800.000
G2 X189.471 Y-106.804 Z14.000 I-153.796 J-153.796 F800.000
G2 X174.019 Y-116.470 Z14.000 I-16.571 J9.307 F800.000
G2 X163.528 Y-114.029 Z14.000 I-1.117 J18.965 F800.000
G1 X48.024 Y-47.345 Z14.000 F800.000
G3 X-48.024 Y-47.345 Z14.000 I-48.024 J-83.128 F800.000
G1 X-163.402 Y-113.959 Z14.000 F800.000
G2 X-189.379 Y-106.961 Z14.000 I-9.498 J16.457 F800.000
G2 X-188.520 Y108.473 Z14.000 I189.370 J106.964 F800.000
G2 X153.796 Y153.796 Z14.000 I188.520 J-108.473 F800.000
G1 X153.796 Y153.796 Z11.000 F800.000
G2 X189.471 Y-106.804 Z11.000 I-153.796 J-153.796 F800.000
G2 X174.019 Y-116.470 Z11.000 I-16.571 J9.307 F800.000
G2 X163.528 Y-114.029 Z11.000 I-1.117 J18.965 F800.000
G1 X48.024 Y-47.345 Z11.000 F800.000
G3 X-48.024 Y-47.345 Z11.000 I-48.024 J-83.128 F800.000
G1 X-163.402 Y-113.959 Z11.000 F800.000
G2 X-189.379 Y-106.961 Z11.000 I-9.498 J16.457 F800.000
G2 X-188.520 Y108.473 Z11.000 I189.370 J106.964 F800.000
G2 X153.796 Y153.796 Z11.000 I188.520 J-108.473 F800.000
G1 X153.796 Y153.796 Z8.000 F800.000
G2 X189.471 Y-106.804 Z8.000 I-153.796 J-153.796 F800.000
G2 X174.019 Y-116.470 Z8.000 I-16.571 J9.307 F800.000
G2 X163.528 Y-114.029 Z8.000 I-1.117 J18.965 F800.000
G1 X48.024 Y-47.345 Z8.000 F800.000
G3 X-48.024 Y-47.345 Z8.000 I-48.024 J-83.128 F800.000
G1 X-163.402 Y-113.959 Z8.000 F800.000
G2 X-189.379 Y-106.961 Z8.000 I-9.498 J16.457 F800.000
G2 X-188.520 Y108.473 Z8.000 I189.370 J106.964 F800.000
G2 X153.796 Y153.796 Z8.000 I188.520 J-108.473 F800.000
G1 X153.796 Y153.796 Z5.000 F800.000
G2 X189.471 Y-106.804 Z5.000 I-153.796 J-153.796 F800.000
G2 X174.019 Y-116.470 Z5.000 I-16.571 J9.307 F800.000
G2 X163.528 Y-114.029 Z5.000 I-1.117 J18.965 F800.000
G1 X48.024 Y-47.345 Z5.000 F800.000
G3 X-48.024 Y-47.345 Z5.000 I-48.024 J-83.128 F800.000
G1 X-163.402 Y-113.959 Z5.000 F800.000
G2 X-189.379 Y-106.961 Z5.000 I-9.498 J16.457 F800.000
G2 X-188.520 Y108.473 Z5.000 I189.370 J106.964 F800.000
G2 X153.796 Y153.796 Z5.000 I188.520 J-108.473 F800.000
G1 X153.796 Y153.796 Z2.000 F800.000
G2 X189.471 Y-106.804 Z2.000 I-153.796 J-153.796 F800.000
G2 X174.019 Y-116.470 Z2.000 I-16.571 J9.307 F800.000
G2 X163.528 Y-114.029 Z2.000 I-1.117 J18.965 F800.000
G1 X48.024 Y-47.345 Z2.000 F800.000
G3 X-48.024 Y-47.345 Z2.000 I-48.024 J-83.128 F800.000
G1 X-163.402 Y-113.959 Z2.000 F800.000
G2 X-189.379 Y-106.961 Z2.000 I-9.498 J16.457 F800.000
G2 X-188.520 Y108.473 Z2.000 I189.370 J106.964 F800.000
G2 X153.796 Y153.796 Z2.000 I188.520 J-108.473 F800.000
G1 X153.796 Y153.796 Z0.000 F800.000
G2 X189.471 Y-106.804 Z0.000 I-153.796 J-153.796 F800.000
G2 X174.019 Y-116.470 Z0.000 I-16.571 J9.307 F800.000
G2 X163.528 Y-114.029 Z0.000 I-1.117 J18.965 F800.000
G1 X48.024 Y-47.345 Z0.000 F800.000
G3 X-48.024 Y-47.345 Z0.000 I-48.024 J-83.128 F800.000
G1 X-163.402 Y-113.959 Z0.000 F800.000
G2 X-189.379 Y-106.961 Z0.000 I-9.498 J16.457 F800.000
G2 X-188.520 Y108.473 Z0.000 I189.370 J106.964 F800.000
G2 X153.796 Y153.796 Z0.000 I188.520 J-108.473 F800.000
G0 Z25.000
G0 Z25.000
(finish operation: Profile001)
(begin postamble)
M05
G17 G54 G90 G80 G40
M2
