
(Exported by FreeCAD)
(Post Processor: mach3_mach4_post)
(Output Time:2023-08-31 14:24:22.318805)
(begin preamble)
G17 G54 G40 G49 G80 G90
G21
(begin operation: G54)
(machine: mach3_4, mm/min)
G54
G0 Z25.000
(finish operation: G54)
(begin operation: 8mmendmill001)
(machine: mach3_4, mm/min)
(8mmendmill001)
M5
M6 T2 
G43 H2
(finish operation: 8mmendmill001)
(begin operation: Adaptive)
(machine: mach3_4, mm/min)
(Adaptive)
(Helix to depth: 15.833333)
G1 Z25.000 F1000.000
G1 X1.285 Y137.142 Z25.000 F1000.000
G1 X1.285 Y137.142 Z23.000 F1000.000
G1 X1.285 Y137.142 Z19.000 F800.000
G1 X1.285 Y137.142 Z19.000 F800.000
G1 X1.824 Y137.372 Z18.948 F800.000
G1 X2.308 Y137.702 Z18.897 F800.000
G1 X2.718 Y138.121 Z18.845 F800.000
G1 X3.039 Y138.612 Z18.794 F800.000
G1 X3.258 Y139.156 Z18.742 F800.000
G1 X3.366 Y139.732 Z18.691 F800.000
G1 X3.360 Y140.318 Z18.639 F800.000
G1 X3.240 Y140.892 Z18.588 F800.000
G1 X3.010 Y141.431 Z18.536 F800.000
G1 X2.679 Y141.915 Z18.485 F800.000
G1 X2.260 Y142.325 Z18.433 F800.000
G1 X1.769 Y142.645 Z18.382 F800.000
G1 X1.226 Y142.864 Z18.330 F800.000
G1 X0.649 Y142.972 Z18.279 F800.000
G1 X0.063 Y142.966 Z18.227 F800.000
G1 X-0.510 Y142.846 Z18.175 F800.000
G1 X-1.049 Y142.616 Z18.124 F800.000
G1 X-1.533 Y142.285 Z18.072 F800.000
G1 X-1.943 Y141.866 Z18.021 F800.000
G1 X-2.264 Y141.376 Z17.969 F800.000
G1 X-2.483 Y140.832 Z17.918 F800.000
G1 X-2.591 Y140.256 Z17.866 F800.000
G1 X-2.585 Y139.670 Z17.815 F800.000
G1 X-2.465 Y139.096 Z17.763 F800.000
G1 X-2.235 Y138.557 Z17.712 F800.000
G1 X-1.904 Y138.073 Z17.660 F800.000
G1 X-1.485 Y137.663 Z17.609 F800.000
G1 X-0.994 Y137.342 Z17.557 F800.000
G1 X-0.451 Y137.124 Z17.505 F800.000
G1 X0.126 Y137.015 Z17.454 F800.000
G1 X0.712 Y137.021 Z17.402 F800.000
G1 X1.285 Y137.142 Z17.351 F800.000
G1 X1.824 Y137.372 Z17.299 F800.000
G1 X2.308 Y137.702 Z17.248 F800.000
G1 X2.718 Y138.121 Z17.196 F800.000
G1 X3.039 Y138.612 Z17.145 F800.000
G1 X3.258 Y139.156 Z17.093 F800.000
G1 X3.366 Y139.732 Z17.042 F800.000
G1 X3.360 Y140.318 Z16.990 F800.000
G1 X3.240 Y140.892 Z16.939 F800.000
G1 X3.010 Y141.431 Z16.887 F800.000
G1 X2.679 Y141.915 Z16.836 F800.000
G1 X2.260 Y142.325 Z16.784 F800.000
G1 X1.769 Y142.645 Z16.732 F800.000
G1 X1.226 Y142.864 Z16.681 F800.000
G1 X0.649 Y142.972 Z16.629 F800.000
G1 X0.063 Y142.966 Z16.578 F800.000
G1 X-0.510 Y142.846 Z16.526 F800.000
G1 X-1.049 Y142.616 Z16.475 F800.000
G1 X-1.533 Y142.285 Z16.423 F800.000
G1 X-1.943 Y141.866 Z16.372 F800.000
G1 X-2.264 Y141.376 Z16.320 F800.000
G1 X-2.483 Y140.832 Z16.269 F800.000
G1 X-2.591 Y140.256 Z16.217 F800.000
G1 X-2.585 Y139.670 Z16.166 F800.000
G1 X-2.465 Y139.096 Z16.114 F800.000
G1 X-2.235 Y138.557 Z16.063 F800.000
G1 X-1.904 Y138.073 Z16.011 F800.000
G1 X-1.485 Y137.663 Z15.959 F800.000
G1 X-0.994 Y137.342 Z15.908 F800.000
G1 X-0.451 Y137.124 Z15.856 F800.000
G1 X0.126 Y137.015 Z15.833 F800.000
G1 X0.712 Y137.021 Z15.833 F800.000
G1 X1.285 Y137.142 Z15.833 F800.000
G1 X1.824 Y137.372 Z15.833 F800.000
G1 X2.308 Y137.702 Z15.833 F800.000
G1 X2.718 Y138.121 Z15.833 F800.000
G1 X3.039 Y138.612 Z15.833 F800.000
G1 X3.258 Y139.156 Z15.833 F800.000
G1 X3.366 Y139.732 Z15.833 F800.000
G1 X3.360 Y140.318 Z15.833 F800.000
G1 X3.240 Y140.892 Z15.833 F800.000
G1 X3.010 Y141.431 Z15.833 F800.000
G1 X2.679 Y141.915 Z15.833 F800.000
G1 X2.260 Y142.325 Z15.833 F800.000
G1 X1.769 Y142.645 Z15.833 F800.000
G1 X1.226 Y142.864 Z15.833 F800.000
G1 X0.649 Y142.972 Z15.833 F800.000
G1 X0.063 Y142.966 Z15.833 F800.000
G1 X-0.510 Y142.846 Z15.833 F800.000
G1 X-1.049 Y142.616 Z15.833 F800.000
G1 X-1.533 Y142.285 Z15.833 F800.000
G1 X-1.943 Y141.866 Z15.833 F800.000
G1 X-2.264 Y141.376 Z15.833 F800.000
G1 X-2.483 Y140.832 Z15.833 F800.000
G1 X-2.591 Y140.256 Z15.833 F800.000
G1 X-2.585 Y139.670 Z15.833 F800.000
G1 X-2.465 Y139.096 Z15.833 F800.000
G1 X-2.235 Y138.557 Z15.833 F800.000
G1 X-1.904 Y138.073 Z15.833 F800.000
G1 X-1.485 Y137.663 Z15.833 F800.000
G1 X-0.994 Y137.342 Z15.833 F800.000
G1 X-0.451 Y137.124 Z15.833 F800.000
(Adaptive - depth: 15.833333)
G1 X0.388 Y136.994 F800.000
G1 X0.456 Y136.919 F800.000
G1 X0.506 Y136.831 F800.000
G1 X0.519 Y136.731 F800.000
G1 X0.781 Y136.069 F800.000
G1 X0.981 Y135.719 F800.000
G1 X1.494 Y135.175 F800.000
G1 X1.656 Y135.069 F800.000
G1 X1.750 Y135.031 F800.000
G1 X1.844 Y135.012 F800.000
G1 X2.381 Y134.781 F800.000
G1 X3.038 Y134.600 F800.000
G1 X3.600 Y134.537 F800.000
G1 X4.069 Y134.569 F800.000
G1 X5.006 Y134.812 F800.000
G1 X5.706 Y135.131 F800.000
G1 X5.950 Y135.287 F800.000
G1 X6.625 Y135.875 F800.000
G1 X7.206 Y136.419 F800.000
G1 X7.675 Y137.062 F800.000
G1 X7.888 Y137.444 F800.000
G1 X8.056 Y137.787 F800.000
G1 X8.213 Y138.287 F800.000
G1 X8.400 Y139.150 F800.000
G1 X8.450 Y139.944 F800.000
G1 X8.450 Y140.488 F800.000
G1 X8.419 Y141.081 F800.000
G1 X8.312 Y141.744 F800.000
G1 X8.175 Y142.331 F800.000
G1 X7.987 Y142.925 F800.000
G1 X7.744 Y143.506 F800.000
G1 X7.463 Y144.056 F800.000
G1 X7.138 Y144.588 F800.000
G1 X6.769 Y145.094 F800.000
G1 X6.606 Y145.219 F800.000
G1 X6.419 Y145.294 F800.000
G1 X6.281 Y145.444 F800.000
G1 X6.200 Y145.500 F800.000
G1 X6.106 Y145.531 F800.000
G1 X5.938 Y145.637 F800.000
G1 X5.844 Y145.675 F800.000
G1 X-3.425 Y145.644 F800.000
G1 X-4.081 Y145.506 F800.000
G1 X-4.638 Y145.300 F800.000
G1 X-4.987 Y145.113 F800.000
G1 X-5.225 Y144.938 F800.000
G1 X-5.356 Y144.781 F800.000
G1 X-5.450 Y144.600 F800.000
G1 X-5.787 Y144.325 F800.000
G1 X-6.419 Y143.425 F800.000
G1 X-6.919 Y142.800 F800.000
G1 X-7.300 Y142.094 F800.000
G1 X-7.569 Y141.412 F800.000
G1 X-7.681 Y140.969 F800.000
G1 X-7.744 Y140.594 F800.000
G1 X-7.781 Y139.681 F800.000
G1 X-7.706 Y138.881 F800.000
G1 X-7.606 Y138.338 F800.000
G1 X-7.475 Y137.775 F800.000
G1 X-7.263 Y137.162 F800.000
G1 X-7.025 Y136.619 F800.000
G1 X-6.744 Y136.088 F800.000
G1 X-6.406 Y135.569 F800.000
G1 X-6.119 Y135.037 F800.000
G1 X-5.975 Y134.887 F800.000
G1 X-5.631 Y134.644 F800.000
G1 X-5.537 Y134.594 F800.000
G1 X-5.331 Y134.356 F800.000
G1 X-5.237 Y134.319 F800.000
G1 X0.619 Y134.319 F800.000
G1 X0.619 Y134.319 F800.000
G1 X0.938 Y134.344 F800.000
G1 X1.250 Y134.387 F800.000
G1 X1.562 Y134.456 F800.000
G1 X1.856 Y134.512 F800.000
G1 X2.131 Y134.531 F800.000
G1 X2.394 Y134.519 F800.000
G1 X3.244 Y134.375 F800.000
G1 X3.862 Y134.319 F800.000
G1 X3.862 Y134.319 F800.000
G1 X9.863 Y134.350 F800.000
G1 X10.706 Y134.512 F800.000
G1 X11.419 Y134.812 F800.000
G1 X11.656 Y134.975 F800.000
G1 X11.800 Y135.100 F800.000
G1 X12.050 Y135.381 F800.000
G1 X12.556 Y135.994 F800.000
G1 X13.019 Y136.644 F800.000
G1 X13.363 Y137.363 F800.000
G1 X13.531 Y137.806 F800.000
G1 X13.662 Y138.225 F800.000
G1 X13.762 Y138.806 F800.000
G1 X13.887 Y139.287 F800.000
G1 X13.975 Y140.081 F800.000
G1 X14.056 Y141.625 F800.000
G1 X14.025 Y142.419 F800.000
G1 X13.956 Y143.213 F800.000
G1 X13.775 Y143.988 F800.000
G1 X13.650 Y144.456 F800.000
G1 X13.412 Y145.113 F800.000
G1 X13.269 Y145.250 F800.000
G1 X13.181 Y145.300 F800.000
G1 X13.069 Y145.463 F800.000
G1 X12.894 Y145.562 F800.000
G1 X12.825 Y145.631 F800.000
G1 X12.738 Y145.675 F800.000
G1 X8.037 Y145.675 F800.000
G1 X8.037 Y145.675 F800.000
G1 X7.713 Y145.644 F800.000
G1 X7.394 Y145.600 F800.000
G1 X7.081 Y145.531 F800.000
G1 X6.775 Y145.438 F800.000
G1 X6.487 Y145.306 F800.000
G1 X6.231 Y145.150 F800.000
G1 X6.044 Y144.956 F800.000
G1 X5.931 Y144.719 F1000.000
G1 X5.894 Y144.456 F1000.000
G1 X5.912 Y144.175 F1000.000
G1 X5.969 Y143.875 F1000.000
G1 X6.138 Y143.219 F1000.000
G1 X7.975 Y136.975 F1000.000
G1 X8.081 Y136.619 F800.000
G1 X8.312 Y135.906 F800.000
G1 X8.456 Y135.575 F800.000
G1 X8.637 Y135.281 F800.000
G1 X8.850 Y135.037 F800.000
G1 X9.100 Y134.838 F800.000
G1 X9.369 Y134.675 F800.000
G1 X9.656 Y134.544 F800.000
G1 X9.956 Y134.456 F800.000
G1 X10.269 Y134.394 F800.000
G1 X10.906 Y134.319 F800.000
G1 X10.906 Y134.319 F800.000
G1 X15.312 Y134.344 F800.000
G1 X16.250 Y134.550 F800.000
G1 X16.788 Y134.750 F800.000
G1 X17.125 Y134.938 F800.000
G1 X17.469 Y135.256 F800.000
G1 X18.012 Y135.963 F800.000
G1 X18.462 Y136.619 F800.000
G1 X19.075 Y137.831 F800.000
G1 X19.375 Y138.569 F800.000
G1 X19.613 Y139.325 F800.000
G1 X19.738 Y140.031 F800.000
G1 X19.800 Y140.506 F800.000
G1 X19.819 Y141.137 F800.000
G1 X19.887 Y141.725 F800.000
G1 X19.875 Y142.519 F800.000
G1 X19.800 Y144.106 F800.000
G1 X19.637 Y144.887 F800.000
G1 X19.538 Y145.056 F800.000
G1 X19.462 Y145.125 F800.000
G1 X19.375 Y145.175 F800.000
G1 X19.294 Y145.356 F800.000
G1 X19.131 Y145.481 F800.000
G1 X19.044 Y145.531 F800.000
G1 X18.894 Y145.669 F800.000
G1 X15.094 Y145.675 F800.000
G1 X15.094 Y145.675 F800.000
G1 X14.769 Y145.644 F800.000
G1 X14.450 Y145.600 F800.000
G1 X14.137 Y145.531 F800.000
G1 X13.831 Y145.438 F800.000
G1 X13.544 Y145.306 F800.000
G1 X13.287 Y145.150 F800.000
G1 X13.088 Y144.950 F800.000
G1 X12.956 Y144.713 F1000.000
G1 X12.894 Y144.444 F1000.000
G1 X12.881 Y144.150 F1000.000
G1 X12.938 Y143.525 F1000.000
G1 X13.969 Y137.025 F1000.000
G1 X14.031 Y136.662 F800.000
G1 X14.169 Y135.925 F800.000
G1 X14.281 Y135.588 F800.000
G1 X14.431 Y135.294 F800.000
G1 X14.631 Y135.044 F800.000
G1 X14.863 Y134.838 F800.000
G1 X15.131 Y134.675 F800.000
G1 X15.412 Y134.544 F800.000
G1 X15.713 Y134.456 F800.000
G1 X16.025 Y134.394 F800.000
G1 X16.663 Y134.319 F800.000
G1 X16.663 Y134.319 F800.000
G1 X20.881 Y134.338 F800.000
G1 X22.006 Y134.581 F800.000
G1 X22.375 Y134.706 F800.000
G1 X22.712 Y134.887 F800.000
G1 X23.006 Y135.131 F800.000
G1 X23.200 Y135.338 F800.000
G1 X23.719 Y135.944 F800.000
G1 X24.181 Y136.594 F800.000
G1 X24.512 Y137.162 F800.000
G1 X24.744 Y137.600 F800.000
G1 X25.025 Y138.300 F800.000
G1 X25.206 Y138.894 F800.000
G1 X25.350 Y139.488 F800.000
G1 X25.444 Y140.131 F800.000
G1 X25.594 Y140.738 F800.000
G1 X25.681 Y141.531 F800.000
G1 X25.750 Y142.325 F800.000
G1 X25.762 Y143.119 F800.000
G1 X25.738 Y143.869 F800.000
G1 X25.669 Y144.662 F800.000
G1 X25.481 Y145.438 F800.000
G1 X25.319 Y145.556 F800.000
G1 X25.225 Y145.588 F800.000
G1 X25.150 Y145.650 F800.000
G1 X25.050 Y145.675 F800.000
G1 X21.250 Y145.675 F800.000
G1 X21.250 Y145.675 F800.000
G1 X20.925 Y145.644 F800.000
G1 X20.606 Y145.600 F800.000
G1 X20.294 Y145.531 F800.000
G1 X19.988 Y145.438 F800.000
G1 X19.700 Y145.306 F800.000
G1 X19.438 Y145.150 F800.000
G1 X19.231 Y144.950 F800.000
G1 X19.087 Y144.713 F1000.000
G1 X19.000 Y144.444 F1000.000
G1 X18.962 Y144.150 F1000.000
G1 X18.950 Y143.525 F1000.000
G1 X19.294 Y137.044 F1000.000
G1 X19.312 Y136.675 F800.000
G1 X19.381 Y135.938 F800.000
G1 X19.456 Y135.594 F800.000
G1 X19.587 Y135.294 F800.000
G1 X19.769 Y135.044 F800.000
G1 X20.000 Y134.838 F800.000
G1 X20.256 Y134.675 F800.000
G1 X20.544 Y134.550 F800.000
G1 X20.837 Y134.456 F800.000
G1 X21.150 Y134.394 F800.000
G1 X21.788 Y134.319 F800.000
G1 X21.788 Y134.319 F800.000
G1 X26.756 Y134.363 F800.000
G1 X27.694 Y134.569 F800.000
G1 X28.056 Y134.694 F800.000
G1 X28.394 Y134.875 F800.000
G1 X28.700 Y135.113 F800.000
G1 X28.894 Y135.325 F800.000
G1 X29.869 Y136.581 F800.000
G1 X30.581 Y137.819 F800.000
G1 X30.869 Y138.562 F800.000
G1 X31.025 Y139.031 F800.000
G1 X31.188 Y139.669 F800.000
G1 X31.288 Y140.325 F800.000
G1 X31.444 Y140.900 F800.000
G1 X31.544 Y141.688 F800.000
G1 X31.700 Y143.275 F800.000
G1 X31.725 Y144.069 F800.000
G1 X31.631 Y144.863 F800.000
G1 X31.569 Y145.044 F800.000
G1 X31.506 Y145.119 F800.000
G1 X31.431 Y145.181 F800.000
G1 X31.406 Y145.275 F800.000
G1 X31.331 Y145.344 F800.000
G1 X31.288 Y145.431 F800.000
G1 X31.100 Y145.662 F800.000
G1 X27.200 Y145.675 F800.000
G1 X27.200 Y145.675 F800.000
G1 X26.875 Y145.644 F800.000
G1 X26.556 Y145.600 F800.000
G1 X26.244 Y145.531 F800.000
G1 X25.938 Y145.438 F800.000
G1 X25.650 Y145.306 F800.000
G1 X25.387 Y145.150 F800.000
G1 X25.175 Y144.950 F800.000
G1 X25.031 Y144.713 F1000.000
G1 X24.944 Y144.444 F1000.000
G1 X24.894 Y144.150 F1000.000
G1 X24.875 Y143.525 F1000.000
G1 X25.087 Y137.044 F1000.000
G1 X25.100 Y136.675 F800.000
G1 X25.150 Y135.938 F800.000
G1 X25.225 Y135.594 F800.000
G1 X25.350 Y135.294 F800.000
G1 X25.531 Y135.044 F800.000
G1 X25.756 Y134.838 F800.000
G1 X26.012 Y134.675 F800.000
G1 X26.300 Y134.550 F800.000
G1 X26.594 Y134.456 F800.000
G1 X26.906 Y134.394 F800.000
G1 X27.544 Y134.319 F800.000
G1 X27.544 Y134.319 F800.000
G1 X32.513 Y134.350 F800.000
G1 X33.356 Y134.512 F800.000
G1 X33.987 Y134.738 F800.000
G1 X34.406 Y134.981 F800.000
G1 X34.688 Y135.231 F800.000
G1 X34.819 Y135.369 F800.000
G1 X35.325 Y135.981 F800.000
G1 X35.775 Y136.637 F800.000
G1 X36.131 Y137.256 F800.000
G1 X36.362 Y137.725 F800.000
G1 X36.612 Y138.369 F800.000
G1 X36.788 Y138.969 F800.000
G1 X37.013 Y139.525 F800.000
G1 X37.206 Y140.300 F800.000
G1 X37.556 Y141.850 F800.000
G1 X37.675 Y142.637 F800.000
G1 X37.688 Y143.431 F800.000
G1 X37.650 Y143.963 F800.000
G1 X37.587 Y144.469 F800.000
G1 X37.431 Y145.100 F800.000
G1 X37.306 Y145.250 F800.000
G1 X37.219 Y145.306 F800.000
G1 X37.112 Y145.475 F800.000
G1 X36.938 Y145.581 F800.000
G1 X36.869 Y145.650 F800.000
G1 X36.769 Y145.675 F800.000
G1 X33.369 Y145.675 F800.000
G1 X33.369 Y145.675 F800.000
G1 X33.044 Y145.644 F800.000
G1 X32.725 Y145.600 F800.000
G1 X32.413 Y145.531 F800.000
G1 X32.106 Y145.438 F800.000
G1 X31.819 Y145.306 F800.000
G1 X31.556 Y145.150 F800.000
G1 X31.344 Y144.950 F800.000
G1 X31.188 Y144.713 F1000.000
G1 X31.094 Y144.444 F1000.000
G1 X31.038 Y144.150 F1000.000
G1 X30.988 Y143.525 F1000.000
G1 X30.931 Y137.044 F1000.000
G1 X30.931 Y136.675 F800.000
G1 X30.950 Y135.938 F800.000
G1 X31.006 Y135.594 F800.000
G1 X31.125 Y135.294 F800.000
G1 X31.300 Y135.044 F800.000
G1 X31.519 Y134.838 F800.000
G1 X31.781 Y134.675 F800.000
G1 X32.062 Y134.550 F800.000
G1 X32.362 Y134.456 F800.000
G1 X32.669 Y134.394 F800.000
G1 X33.306 Y134.319 F800.000
G1 X33.306 Y134.319 F800.000
G1 X38.181 Y134.338 F800.000
G1 X39.119 Y134.512 F800.000
G1 X39.750 Y134.750 F800.000
G1 X40.169 Y134.994 F800.000
G1 X40.388 Y135.181 F800.000
G1 X41.019 Y135.944 F800.000
G1 X41.450 Y136.613 F800.000
G1 X41.862 Y137.294 F800.000
G1 X42.250 Y137.988 F800.000
G1 X42.594 Y138.706 F800.000
G1 X42.906 Y139.438 F800.000
G1 X43.181 Y140.181 F800.000
G1 X43.444 Y141.469 F800.000
G1 X43.531 Y142.238 F800.000
G1 X43.544 Y142.950 F800.000
G1 X43.525 Y143.594 F800.000
G1 X43.444 Y144.300 F800.000
G1 X43.312 Y144.981 F800.000
G1 X43.200 Y145.150 F800.000
G1 X43.125 Y145.213 F800.000
G1 X43.094 Y145.306 F800.000
G1 X43.019 Y145.369 F800.000
G1 X42.975 Y145.456 F800.000
G1 X42.781 Y145.675 F800.000
G1 X39.181 Y145.675 F800.000
G1 X39.181 Y145.675 F800.000
G1 X38.856 Y145.644 F800.000
G1 X38.538 Y145.600 F800.000
G1 X38.225 Y145.531 F800.000
G1 X37.919 Y145.438 F800.000
G1 X37.631 Y145.306 F800.000
G1 X37.369 Y145.150 F800.000
G1 X37.156 Y144.950 F800.000
G1 X37.000 Y144.713 F1000.000
G1 X36.900 Y144.444 F1000.000
G1 X36.844 Y144.150 F1000.000
G1 X36.794 Y143.525 F1000.000
G1 X36.700 Y137.044 F1000.000
G1 X36.694 Y136.675 F800.000
G1 X36.712 Y135.938 F800.000
G1 X36.769 Y135.594 F800.000
G1 X36.881 Y135.294 F800.000
G1 X37.056 Y135.044 F800.000
G1 X37.281 Y134.838 F800.000
G1 X37.538 Y134.675 F800.000
G1 X37.819 Y134.550 F800.000
G1 X38.119 Y134.456 F800.000
G1 X38.425 Y134.394 F800.000
G1 X39.062 Y134.319 F800.000
G1 X39.062 Y134.319 F800.000
G1 X44.031 Y134.325 F800.000
G1 X45.062 Y134.525 F800.000
G1 X45.606 Y134.725 F800.000
G1 X46.031 Y134.956 F800.000
G1 X46.263 Y135.125 F800.000
G1 X46.469 Y135.331 F800.000
G1 X46.975 Y135.944 F800.000
G1 X47.462 Y136.569 F800.000
G1 X47.925 Y137.219 F800.000
G1 X48.525 Y138.400 F800.000
G1 X48.825 Y139.137 F800.000
G1 X49.038 Y139.850 F800.000
G1 X49.200 Y140.506 F800.000
G1 X49.325 Y141.238 F800.000
G1 X49.394 Y141.956 F800.000
G1 X49.419 Y142.669 F800.000
G1 X49.388 Y143.394 F800.000
G1 X49.306 Y144.113 F800.000
G1 X49.156 Y144.919 F800.000
G1 X49.119 Y145.006 F800.000
G1 X48.994 Y145.162 F800.000
G1 X48.962 Y145.256 F800.000
G1 X48.894 Y145.325 F800.000
G1 X48.844 Y145.406 F800.000
G1 X48.631 Y145.619 F800.000
G1 X48.550 Y145.675 F800.000
G1 X45.050 Y145.675 F800.000
G1 X45.050 Y145.675 F800.000
G1 X44.725 Y145.644 F800.000
G1 X44.406 Y145.600 F800.000
G1 X44.094 Y145.531 F800.000
G1 X43.788 Y145.438 F800.000
G1 X43.500 Y145.306 F800.000
G1 X43.237 Y145.150 F800.000
G1 X43.031 Y144.950 F800.000
G1 X42.881 Y144.713 F1000.000
G1 X42.794 Y144.444 F1000.000
G1 X42.750 Y144.150 F1000.000
G1 X42.731 Y143.525 F1000.000
G1 X42.994 Y137.044 F1000.000
G1 X43.013 Y136.675 F800.000
G1 X43.069 Y135.938 F800.000
G1 X43.138 Y135.594 F800.000
G1 X43.269 Y135.294 F800.000
G1 X43.450 Y135.044 F800.000
G1 X43.675 Y134.838 F800.000
G1 X43.931 Y134.675 F800.000
G1 X44.219 Y134.550 F800.000
G1 X44.513 Y134.456 F800.000
G1 X44.825 Y134.394 F800.000
G1 X45.462 Y134.319 F800.000
G1 X45.462 Y134.319 F800.000
G1 X47.244 Y134.319 F800.000
G1 X47.337 Y134.344 F800.000
G1 X47.431 Y134.319 F800.000
G1 X47.712 Y134.331 F800.000
G1 X50.150 Y134.344 F800.000
G1 X51.181 Y134.544 F800.000
G1 X51.812 Y134.794 F800.000
G1 X52.219 Y135.050 F800.000
G1 X52.494 Y135.319 F800.000
G1 X52.987 Y135.944 F800.000
G1 X53.462 Y136.581 F800.000
G1 X53.913 Y137.238 F800.000
G1 X54.481 Y138.431 F800.000
G1 X54.769 Y139.175 F800.000
G1 X54.969 Y139.900 F800.000
G1 X55.119 Y140.556 F800.000
G1 X55.231 Y141.287 F800.000
G1 X55.288 Y142.006 F800.000
G1 X55.294 Y142.713 F800.000
G1 X55.250 Y143.438 F800.000
G1 X55.156 Y144.156 F800.000
G1 X55.013 Y144.863 F800.000
G1 X54.938 Y145.044 F800.000
G1 X54.875 Y145.125 F800.000
G1 X54.800 Y145.194 F800.000
G1 X54.706 Y145.363 F800.000
G1 X54.500 Y145.575 F800.000
G1 X54.419 Y145.637 F800.000
G1 X54.325 Y145.675 F800.000
G1 X50.625 Y145.675 F800.000
G1 X50.625 Y145.675 F800.000
G1 X50.300 Y145.644 F800.000
G1 X49.981 Y145.600 F800.000
G1 X49.669 Y145.531 F800.000
G1 X49.362 Y145.438 F800.000
G1 X49.075 Y145.306 F800.000
G1 X48.812 Y145.150 F800.000
G1 X48.606 Y144.950 F800.000
G1 X48.462 Y144.713 F1000.000
G1 X48.381 Y144.444 F1000.000
G1 X48.344 Y144.150 F1000.000
G1 X48.331 Y143.525 F1000.000
G1 X48.719 Y137.044 F1000.000
G1 X48.744 Y136.675 F800.000
G1 X48.812 Y135.938 F800.000
G1 X48.894 Y135.594 F800.000
G1 X49.025 Y135.294 F800.000
G1 X49.206 Y135.044 F800.000
G1 X49.438 Y134.838 F800.000
G1 X49.694 Y134.675 F800.000
G1 X49.981 Y134.550 F800.000
G1 X50.275 Y134.456 F800.000
G1 X50.587 Y134.394 F800.000
G1 X51.225 Y134.319 F800.000
G1 X51.225 Y134.319 F800.000
G1 X56.006 Y134.338 F800.000
G1 X57.131 Y134.581 F800.000
G1 X57.756 Y134.831 F800.000
G1 X58.000 Y134.981 F800.000
G1 X58.419 Y135.381 F800.000
G1 X58.975 Y135.950 F800.000
G1 X59.444 Y136.594 F800.000
G1 X59.781 Y137.162 F800.000
G1 X60.031 Y137.781 F800.000
G1 X60.475 Y140.219 F800.000
G1 X60.656 Y143.781 F800.000
G1 X60.525 Y145.469 F800.000
G1 X60.494 Y145.562 F800.000
G1 X60.431 Y145.637 F800.000
G1 X60.337 Y145.675 F800.000
G1 X56.938 Y145.675 F800.000
G1 X56.938 Y145.675 F800.000
G1 X56.612 Y145.644 F800.000
G1 X56.294 Y145.600 F800.000
G1 X55.981 Y145.531 F800.000
G1 X55.675 Y145.438 F800.000
G1 X55.388 Y145.306 F800.000
G1 X55.125 Y145.150 F800.000
G1 X54.913 Y144.950 F800.000
G1 X54.763 Y144.713 F1000.000
G1 X54.669 Y144.444 F1000.000
G1 X54.612 Y144.150 F1000.000
G1 X54.569 Y143.525 F1000.000
G1 X54.587 Y137.044 F1000.000
G1 X54.594 Y136.675 F800.000
G1 X54.619 Y135.938 F800.000
G1 X54.681 Y135.594 F800.000
G1 X54.800 Y135.294 F800.000
G1 X54.981 Y135.044 F800.000
G1 X55.200 Y134.838 F800.000
G1 X55.462 Y134.675 F800.000
G1 X55.744 Y134.550 F800.000
G1 X56.044 Y134.456 F800.000
G1 X56.350 Y134.394 F800.000
G1 X56.987 Y134.319 F800.000
G1 X56.987 Y134.319 F800.000
G1 X60.362 Y134.319 F800.000
G1 X60.456 Y134.338 F800.000
G1 X60.544 Y134.375 F800.000
G1 X60.612 Y134.438 F800.000
G1 X60.656 Y134.525 F800.000
G1 X60.675 Y134.619 F800.000
G1 X60.675 Y138.088 F800.000
G1 X60.675 Y138.088 F800.000
G1 X60.669 Y138.406 F800.000
G1 X60.663 Y138.725 F1000.000
G1 X60.581 Y141.381 F1000.000
G1 X60.581 Y141.750 F800.000
G1 X60.656 Y145.475 F800.000
G1 X60.656 Y145.475 F800.000
G1 X60.612 Y145.562 F800.000
G1 X60.544 Y145.631 F800.000
G1 X60.544 Y145.631 F800.000
G1 X59.244 Y145.637 F800.000
G1 X58.919 Y145.625 F800.000
G1 X58.600 Y145.594 F800.000
G1 X58.300 Y145.525 F800.000
G1 X58.025 Y145.406 F1000.000
G1 X57.775 Y145.231 F1000.000
G1 X57.538 Y145.025 F1000.000
G1 X57.100 Y144.550 F1000.000
G1 X55.819 Y143.025 F1000.000
G1 X55.600 Y142.794 F1000.000
G1 X55.356 Y142.594 F1000.000
G1 X55.094 Y142.456 F1000.000
G1 X54.800 Y142.375 F1000.000
G1 X54.494 Y142.331 F1000.000
G1 X53.850 Y142.306 F1000.000
G1 X49.219 Y142.369 F1000.000
G1 X34.194 Y142.281 F1000.000
G1 X28.262 Y142.394 F1000.000
G1 X23.794 Y142.244 F1000.000
G1 X8.238 Y142.281 F1000.000
G1 X2.081 Y142.381 F1000.000
G1 X1.744 Y142.394 F1000.000
G1 X1.425 Y142.444 F1000.000
G1 X1.113 Y142.537 F1000.000
G1 X0.812 Y142.675 F1000.000
G1 X0.525 Y142.844 F1000.000
G1 X-0.581 Y143.644 F1000.000
G1 X-0.850 Y143.844 F800.000
G1 X-2.144 Y144.831 F800.000
G1 X-2.688 Y145.175 F800.000
G1 X-2.969 Y145.325 F800.000
G1 X-3.269 Y145.444 F800.000
G1 X-3.575 Y145.531 F800.000
G1 X-3.888 Y145.594 F800.000
G1 X-4.525 Y145.675 F800.000
G1 X-4.525 Y145.675 F800.000
G1 X-6.025 Y145.675 F800.000
G1 X-6.119 Y145.644 F800.000
G1 X-6.206 Y145.675 F800.000
G1 X-6.300 Y145.675 F800.000
G1 X-6.394 Y145.656 F800.000
G1 X-6.487 Y145.675 F800.000
G1 X-8.644 Y145.644 F800.000
G1 X-9.300 Y145.519 F800.000
G1 X-9.856 Y145.312 F800.000
G1 X-10.206 Y145.125 F800.000
G1 X-10.450 Y144.950 F800.000
G1 X-11.281 Y144.094 F800.000
G1 X-11.800 Y143.481 F800.000
G1 X-12.219 Y142.812 F800.000
G1 X-12.438 Y142.344 F800.000
G1 X-12.594 Y141.956 F800.000
G1 X-12.731 Y141.431 F800.000
G1 X-12.881 Y140.963 F800.000
G1 X-13.019 Y140.169 F800.000
G1 X-13.162 Y138.744 F800.000
G1 X-13.156 Y137.944 F800.000
G1 X-13.113 Y137.175 F800.000
G1 X-13.025 Y136.375 F800.000
G1 X-12.881 Y135.588 F800.000
G1 X-12.625 Y134.831 F800.000
G1 X-12.344 Y134.525 F800.000
G1 X-12.100 Y134.331 F800.000
G1 X-8.000 Y134.319 F800.000
G1 X-8.000 Y134.319 F800.000
G1 X-7.675 Y134.338 F800.000
G1 X-7.356 Y134.381 F800.000
G1 X-7.044 Y134.444 F800.000
G1 X-6.737 Y134.537 F800.000
G1 X-6.450 Y134.662 F800.000
G1 X-6.194 Y134.819 F800.000
G1 X-5.994 Y135.012 F800.000
G1 X-5.862 Y135.250 F1000.000
G1 X-5.806 Y135.519 F1000.000
G1 X-5.794 Y135.812 F1000.000
G1 X-5.850 Y136.438 F1000.000
G1 X-6.931 Y142.912 F1000.000
G1 X-6.987 Y143.238 F800.000
G1 X-7.100 Y143.881 F800.000
G1 X-7.169 Y144.188 F800.000
G1 X-7.275 Y144.475 F800.000
G1 X-7.419 Y144.738 F800.000
G1 X-7.612 Y144.963 F800.000
G1 X-7.850 Y145.150 F800.000
G1 X-8.113 Y145.312 F800.000
G1 X-8.394 Y145.438 F800.000
G1 X-8.694 Y145.531 F800.000
G1 X-9.006 Y145.594 F800.000
G1 X-9.644 Y145.675 F800.000
G1 X-9.644 Y145.675 F800.000
G1 X-13.675 Y145.662 F800.000
G1 X-14.706 Y145.456 F800.000
G1 X-15.344 Y145.194 F800.000
G1 X-15.825 Y144.844 F800.000
G1 X-16.031 Y144.631 F800.000
G1 X-16.562 Y144.031 F800.000
G1 X-17.081 Y143.419 F800.000
G1 X-17.569 Y142.787 F800.000
G1 X-17.931 Y142.075 F800.000
G1 X-18.100 Y141.656 F800.000
G1 X-18.250 Y141.225 F800.000
G1 X-18.363 Y140.656 F800.000
G1 X-18.506 Y140.188 F800.000
G1 X-18.631 Y139.394 F800.000
G1 X-18.806 Y137.806 F800.000
G1 X-18.819 Y137.006 F800.000
G1 X-18.806 Y136.206 F800.000
G1 X-18.762 Y135.406 F800.000
G1 X-18.600 Y134.619 F800.000
G1 X-18.531 Y134.537 F800.000
G1 X-18.356 Y134.425 F800.000
G1 X-18.281 Y134.350 F800.000
G1 X-18.181 Y134.319 F800.000
G1 X-15.681 Y134.319 F800.000
G1 X-15.681 Y134.319 F800.000
G1 X-15.356 Y134.338 F800.000
G1 X-15.037 Y134.381 F800.000
G1 X-14.725 Y134.444 F800.000
G1 X-14.419 Y134.537 F800.000
G1 X-14.131 Y134.662 F800.000
G1 X-13.869 Y134.819 F800.000
G1 X-13.644 Y135.012 F800.000
G1 X-13.481 Y135.250 F1000.000
G1 X-13.363 Y135.519 F1000.000
G1 X-13.287 Y135.812 F1000.000
G1 X-13.188 Y136.438 F1000.000
G1 X-12.562 Y142.900 F1000.000
G1 X-12.531 Y143.231 F800.000
G1 X-12.475 Y143.875 F800.000
G1 X-12.463 Y144.188 F800.000
G1 X-12.500 Y144.475 F800.000
G1 X-12.600 Y144.731 F800.000
G1 X-12.769 Y144.963 F800.000
G1 X-12.981 Y145.150 F800.000
G1 X-13.238 Y145.312 F800.000
G1 X-13.519 Y145.438 F800.000
G1 X-13.819 Y145.531 F800.000
G1 X-14.125 Y145.594 F800.000
G1 X-14.762 Y145.675 F800.000
G1 X-14.762 Y145.675 F800.000
G1 X-19.169 Y145.650 F800.000
G1 X-19.637 Y145.581 F800.000
G1 X-20.663 Y145.238 F800.000
G1 X-20.925 Y145.100 F800.000
G1 X-21.312 Y144.794 F800.000
G1 X-22.000 Y144.062 F800.000
G1 X-23.000 Y142.812 F800.000
G1 X-23.644 Y141.656 F800.000
G1 X-23.975 Y140.925 F800.000
G1 X-24.225 Y140.194 F800.000
G1 X-24.419 Y139.537 F800.000
G1 X-24.581 Y138.794 F800.000
G1 X-24.681 Y138.069 F800.000
G1 X-24.738 Y137.350 F800.000
G1 X-24.744 Y136.613 F800.000
G1 X-24.700 Y135.881 F800.000
G1 X-24.606 Y135.150 F800.000
G1 X-24.544 Y134.950 F800.000
G1 X-24.419 Y134.787 F800.000
G1 X-24.375 Y134.694 F800.000
G1 X-24.175 Y134.450 F800.000
G1 X-24.019 Y134.319 F800.000
G1 X-21.819 Y134.319 F800.000
G1 X-21.819 Y134.319 F800.000
G1 X-21.494 Y134.338 F800.000
G1 X-21.175 Y134.381 F800.000
G1 X-20.863 Y134.444 F800.000
G1 X-20.556 Y134.537 F800.000
G1 X-20.269 Y134.662 F800.000
G1 X-20.000 Y134.819 F800.000
G1 X-19.781 Y135.012 F800.000
G1 X-19.606 Y135.250 F1000.000
G1 X-19.481 Y135.519 F1000.000
G1 X-19.394 Y135.812 F1000.000
G1 X-19.269 Y136.438 F1000.000
G1 X-18.394 Y142.906 F1000.000
G1 X-18.350 Y143.238 F800.000
G1 X-18.269 Y143.875 F800.000
G1 X-18.250 Y144.188 F800.000
G1 X-18.281 Y144.475 F800.000
G1 X-18.375 Y144.738 F800.000
G1 X-18.538 Y144.963 F800.000
G1 X-18.750 Y145.150 F800.000
G1 X-19.000 Y145.312 F800.000
G1 X-19.281 Y145.438 F800.000
G1 X-19.581 Y145.531 F800.000
G1 X-19.887 Y145.594 F800.000
G1 X-20.525 Y145.675 F800.000
G1 X-20.525 Y145.675 F800.000
G1 X-24.744 Y145.650 F800.000
G1 X-25.775 Y145.438 F800.000
G1 X-26.413 Y145.175 F800.000
G1 X-26.831 Y144.906 F800.000
G1 X-26.975 Y144.769 F800.000
G1 X-27.038 Y144.688 F800.000
G1 X-27.731 Y144.119 F800.000
G1 X-28.269 Y143.525 F800.000
G1 X-28.756 Y142.894 F800.000
G1 X-29.031 Y142.444 F800.000
G1 X-29.256 Y142.019 F800.000
G1 X-29.475 Y141.456 F800.000
G1 X-29.700 Y140.975 F800.000
G1 X-29.938 Y140.206 F800.000
G1 X-30.319 Y138.688 F800.000
G1 X-30.438 Y137.894 F800.000
G1 X-30.519 Y137.094 F800.000
G1 X-30.562 Y136.294 F800.000
G1 X-30.425 Y134.981 F800.000
G1 X-30.387 Y134.887 F800.000
G1 X-30.331 Y134.800 F800.000
G1 X-30.256 Y134.725 F800.000
G1 X-30.144 Y134.550 F800.000
G1 X-29.913 Y134.344 F800.000
G1 X-29.812 Y134.319 F800.000
G1 X-27.712 Y134.319 F800.000
G1 X-27.712 Y134.319 F800.000
G1 X-27.387 Y134.338 F800.000
G1 X-27.069 Y134.381 F800.000
G1 X-26.756 Y134.444 F800.000
G1 X-26.450 Y134.537 F800.000
G1 X-26.163 Y134.662 F800.000
G1 X-25.894 Y134.819 F800.000
G1 X-25.663 Y135.019 F800.000
G1 X-25.481 Y135.250 F1000.000
G1 X-25.344 Y135.525 F1000.000
G1 X-25.231 Y135.819 F1000.000
G1 X-25.062 Y136.444 F1000.000
G1 X-23.663 Y142.919 F1000.000
G1 X-23.594 Y143.250 F800.000
G1 X-23.462 Y143.887 F800.000
G1 X-23.419 Y144.194 F800.000
G1 X-23.431 Y144.481 F800.000
G1 X-23.512 Y144.738 F800.000
G1 X-23.663 Y144.963 F800.000
G1 X-23.875 Y145.150 F800.000
G1 X-24.125 Y145.312 F800.000
G1 X-24.400 Y145.438 F800.000
G1 X-24.700 Y145.531 F800.000
G1 X-25.006 Y145.594 F800.000
G1 X-25.644 Y145.675 F800.000
G1 X-25.644 Y145.675 F800.000
G1 X-30.425 Y145.650 F800.000
G1 X-31.550 Y145.419 F800.000
G1 X-32.188 Y145.156 F800.000
G1 X-32.513 Y144.931 F800.000
G1 X-32.712 Y144.713 F800.000
G1 X-32.788 Y144.650 F800.000
G1 X-33.869 Y143.512 F800.000
G1 X-34.369 Y142.887 F800.000
G1 X-35.075 Y141.769 F800.000
G1 X-35.431 Y141.050 F800.000
G1 X-35.706 Y140.381 F800.000
G1 X-35.950 Y139.700 F800.000
G1 X-36.150 Y138.956 F800.000
G1 X-36.294 Y138.238 F800.000
G1 X-36.394 Y137.506 F800.000
G1 X-36.444 Y136.756 F800.000
G1 X-36.444 Y136.019 F800.000
G1 X-36.394 Y135.275 F800.000
G1 X-36.306 Y135.088 F800.000
G1 X-36.250 Y135.000 F800.000
G1 X-36.237 Y134.900 F800.000
G1 X-36.119 Y134.731 F800.000
G1 X-36.044 Y134.656 F800.000
G1 X-36.000 Y134.562 F800.000
G1 X-35.781 Y134.338 F800.000
G1 X-35.681 Y134.319 F800.000
G1 X-33.581 Y134.319 F800.000
G1 X-33.581 Y134.319 F800.000
G1 X-33.256 Y134.338 F800.000
G1 X-32.938 Y134.381 F800.000
G1 X-32.625 Y134.444 F800.000
G1 X-32.319 Y134.537 F800.000
G1 X-32.031 Y134.662 F800.000
G1 X-31.762 Y134.819 F800.000
G1 X-31.531 Y135.012 F800.000
G1 X-31.350 Y135.244 F1000.000
G1 X-31.206 Y135.506 F1000.000
G1 X-31.100 Y135.787 F1000.000
G1 X-30.925 Y136.394 F1000.000
G1 X-29.438 Y142.944 F1000.000
G1 X-29.369 Y143.262 F800.000
G1 X-29.231 Y143.894 F800.000
G1 X-29.188 Y144.200 F800.000
G1 X-29.194 Y144.481 F800.000
G1 X-29.269 Y144.738 F800.000
G1 X-29.419 Y144.963 F800.000
G1 X-29.631 Y145.150 F800.000
G1 X-29.881 Y145.312 F800.000
G1 X-30.156 Y145.438 F800.000
G1 X-30.456 Y145.531 F800.000
G1 X-30.762 Y145.594 F800.000
G1 X-31.400 Y145.675 F800.000
G1 X-31.400 Y145.675 F800.000
G1 X-33.931 Y145.675 F800.000
G1 X-34.025 Y145.656 F800.000
G1 X-34.119 Y145.675 F800.000
G1 X-36.275 Y145.650 F800.000
G1 X-37.119 Y145.481 F800.000
G1 X-37.675 Y145.275 F800.000
G1 X-38.181 Y144.975 F800.000
G1 X-38.544 Y144.625 F800.000
G1 X-39.188 Y144.150 F800.000
G1 X-39.744 Y143.575 F800.000
G1 X-40.244 Y142.950 F800.000
G1 X-40.594 Y142.431 F800.000
G1 X-40.844 Y142.006 F800.000
G1 X-41.119 Y141.406 F800.000
G1 X-41.312 Y140.856 F800.000
G1 X-41.462 Y140.306 F800.000
G1 X-41.688 Y139.750 F800.000
G1 X-42.038 Y138.188 F800.000
G1 X-42.144 Y137.394 F800.000
G1 X-42.200 Y136.700 F800.000
G1 X-42.231 Y135.900 F800.000
G1 X-42.131 Y135.100 F800.000
G1 X-42.025 Y134.919 F800.000
G1 X-41.950 Y134.844 F800.000
G1 X-41.931 Y134.744 F800.000
G1 X-41.775 Y134.606 F800.000
G1 X-41.600 Y134.344 F800.000
G1 X-41.500 Y134.319 F800.000
G1 X-39.400 Y134.319 F800.000
G1 X-39.400 Y134.319 F800.000
G1 X-39.075 Y134.338 F800.000
G1 X-38.756 Y134.381 F800.000
G1 X-38.444 Y134.444 F800.000
G1 X-38.138 Y134.537 F800.000
G1 X-37.850 Y134.662 F800.000
G1 X-37.581 Y134.819 F800.000
G1 X-37.350 Y135.012 F800.000
G1 X-37.169 Y135.244 F1000.000
G1 X-37.025 Y135.506 F1000.000
G1 X-36.913 Y135.787 F1000.000
G1 X-36.737 Y136.394 F1000.000
G1 X-35.212 Y142.944 F1000.000
G1 X-35.138 Y143.262 F800.000
G1 X-34.994 Y143.894 F800.000
G1 X-34.950 Y144.200 F800.000
G1 X-34.956 Y144.481 F800.000
G1 X-35.031 Y144.738 F800.000
G1 X-35.181 Y144.963 F800.000
G1 X-35.394 Y145.150 F800.000
G1 X-35.644 Y145.312 F800.000
G1 X-35.919 Y145.438 F800.000
G1 X-36.219 Y145.531 F800.000
G1 X-36.525 Y145.594 F800.000
G1 X-37.163 Y145.675 F800.000
G1 X-37.163 Y145.675 F800.000
G1 X-42.225 Y145.644 F800.000
G1 X-42.881 Y145.506 F800.000
G1 X-43.531 Y145.269 F800.000
G1 X-43.956 Y145.025 F800.000
G1 X-44.112 Y144.900 F800.000
G1 X-44.394 Y144.619 F800.000
G1 X-44.981 Y144.075 F800.000
G1 X-45.544 Y143.506 F800.000
G1 X-46.031 Y142.875 F800.000
G1 X-46.669 Y141.850 F800.000
G1 X-47.006 Y141.125 F800.000
G1 X-47.237 Y140.519 F800.000
G1 X-47.431 Y139.900 F800.000
G1 X-47.581 Y139.219 F800.000
G1 X-47.681 Y138.556 F800.000
G1 X-47.837 Y137.906 F800.000
G1 X-47.925 Y137.106 F800.000
G1 X-47.994 Y136.306 F800.000
G1 X-47.894 Y135.037 F800.000
G1 X-47.862 Y134.938 F800.000
G1 X-47.812 Y134.844 F800.000
G1 X-47.744 Y134.762 F800.000
G1 X-47.638 Y134.581 F800.000
G1 X-47.413 Y134.363 F800.000
G1 X-47.319 Y134.319 F800.000
G1 X-45.119 Y134.319 F800.000
G1 X-45.119 Y134.319 F800.000
G1 X-44.794 Y134.338 F800.000
G1 X-44.475 Y134.381 F800.000
G1 X-44.163 Y134.444 F800.000
G1 X-43.856 Y134.537 F800.000
G1 X-43.569 Y134.662 F800.000
G1 X-43.300 Y134.819 F800.000
G1 X-43.069 Y135.012 F800.000
G1 X-42.888 Y135.244 F1000.000
G1 X-42.744 Y135.506 F1000.000
G1 X-42.631 Y135.787 F1000.000
G1 X-42.462 Y136.394 F1000.000
G1 X-40.962 Y142.944 F1000.000
G1 X-40.894 Y143.262 F800.000
G1 X-40.756 Y143.894 F800.000
G1 X-40.712 Y144.200 F800.000
G1 X-40.719 Y144.481 F800.000
G1 X-40.794 Y144.738 F800.000
G1 X-40.944 Y144.963 F800.000
G1 X-41.156 Y145.150 F800.000
G1 X-41.406 Y145.312 F800.000
G1 X-41.681 Y145.438 F800.000
G1 X-41.981 Y145.531 F800.000
G1 X-42.288 Y145.594 F800.000
G1 X-42.925 Y145.675 F800.000
G1 X-42.925 Y145.675 F800.000
G1 X-47.800 Y145.637 F800.000
G1 X-48.456 Y145.537 F800.000
G1 X-49.112 Y145.350 F800.000
G1 X-49.650 Y145.100 F800.000
G1 X-50.031 Y144.781 F800.000
G1 X-50.169 Y144.631 F800.000
G1 X-50.806 Y144.150 F800.000
G1 X-51.325 Y143.637 F800.000
G1 X-51.812 Y143.006 F800.000
G1 X-52.138 Y142.506 F800.000
G1 X-52.381 Y142.100 F800.000
G1 X-52.688 Y141.412 F800.000
G1 X-52.888 Y140.856 F800.000
G1 X-53.050 Y140.294 F800.000
G1 X-53.269 Y139.700 F800.000
G1 X-53.763 Y137.344 F800.000
G1 X-53.794 Y136.544 F800.000
G1 X-53.731 Y135.412 F800.000
G1 X-53.600 Y134.700 F800.000
G1 X-53.231 Y134.325 F800.000
G1 X-50.931 Y134.319 F800.000
G1 X-50.931 Y134.319 F800.000
G1 X-50.606 Y134.338 F800.000
G1 X-50.288 Y134.381 F800.000
G1 X-49.975 Y134.444 F800.000
G1 X-49.669 Y134.537 F800.000
G1 X-49.381 Y134.662 F800.000
G1 X-49.112 Y134.819 F800.000
G1 X-48.881 Y135.012 F800.000
G1 X-48.700 Y135.244 F1000.000
G1 X-48.556 Y135.506 F1000.000
G1 X-48.444 Y135.787 F1000.000
G1 X-48.263 Y136.394 F1000.000
G1 X-46.731 Y142.944 F1000.000
G1 X-46.656 Y143.262 F800.000
G1 X-46.513 Y143.894 F800.000
G1 X-46.469 Y144.200 F800.000
G1 X-46.475 Y144.481 F800.000
G1 X-46.550 Y144.738 F800.000
G1 X-46.700 Y144.963 F800.000
G1 X-46.913 Y145.150 F800.000
G1 X-47.163 Y145.312 F800.000
G1 X-47.438 Y145.438 F800.000
G1 X-47.737 Y145.531 F800.000
G1 X-48.044 Y145.594 F800.000
G1 X-48.681 Y145.675 F800.000
G1 X-48.681 Y145.675 F800.000
G1 X-53.744 Y145.637 F800.000
G1 X-54.494 Y145.481 F800.000
G1 X-55.050 Y145.275 F800.000
G1 X-55.475 Y145.031 F800.000
G1 X-55.700 Y144.844 F800.000
G1 X-55.913 Y144.631 F800.000
G1 X-56.544 Y144.137 F800.000
G1 X-57.100 Y143.562 F800.000
G1 X-57.600 Y142.938 F800.000
G1 X-57.938 Y142.419 F800.000
G1 X-58.169 Y142.006 F800.000
G1 X-58.425 Y141.419 F800.000
G1 X-58.606 Y140.875 F800.000
G1 X-58.837 Y140.375 F800.000
G1 X-59.056 Y139.600 F800.000
G1 X-59.456 Y138.050 F800.000
G1 X-59.581 Y136.656 F800.000
G1 X-59.606 Y135.856 F800.000
G1 X-59.556 Y135.056 F800.000
G1 X-59.450 Y134.875 F800.000
G1 X-59.375 Y134.806 F800.000
G1 X-59.319 Y134.606 F800.000
G1 X-59.256 Y134.519 F800.000
G1 X-59.163 Y134.475 F800.000
G1 X-59.094 Y134.394 F800.000
G1 X-59.013 Y134.325 F800.000
G1 X-56.812 Y134.319 F800.000
G1 X-56.812 Y134.319 F800.000
G1 X-56.487 Y134.338 F800.000
G1 X-56.169 Y134.381 F800.000
G1 X-55.856 Y134.444 F800.000
G1 X-55.550 Y134.537 F800.000
G1 X-55.263 Y134.662 F800.000
G1 X-54.994 Y134.819 F800.000
G1 X-54.763 Y135.012 F800.000
G1 X-54.575 Y135.244 F1000.000
G1 X-54.431 Y135.506 F1000.000
G1 X-54.312 Y135.787 F1000.000
G1 X-54.131 Y136.394 F1000.000
G1 X-52.519 Y142.950 F1000.000
G1 X-52.438 Y143.269 F800.000
G1 X-52.288 Y143.900 F800.000
G1 X-52.237 Y144.200 F800.000
G1 X-52.244 Y144.481 F800.000
G1 X-52.319 Y144.738 F800.000
G1 X-52.469 Y144.963 F800.000
G1 X-52.675 Y145.156 F800.000
G1 X-52.925 Y145.312 F800.000
G1 X-53.200 Y145.438 F800.000
G1 X-53.500 Y145.531 F800.000
G1 X-53.806 Y145.594 F800.000
G1 X-54.444 Y145.675 F800.000
G1 X-54.444 Y145.675 F800.000
G1 X-59.319 Y145.650 F800.000
G1 X-59.881 Y145.575 F800.000
G1 X-60.444 Y145.419 F800.000
G1 X-60.625 Y145.175 F800.000
G1 X-60.675 Y145.088 F800.000
G1 X-60.675 Y134.588 F800.000
G1 X-60.644 Y134.488 F800.000
G1 X-60.581 Y134.406 F800.000
G1 X-60.494 Y134.350 F800.000
G1 X-60.394 Y134.319 F800.000
G1 X-60.394 Y134.319 F800.000
G1 X-60.156 Y134.406 F800.000
G1 X-59.981 Y134.562 F1000.000
G1 X-59.862 Y134.775 F1000.000
G1 X-59.794 Y135.037 F1000.000
G1 X-59.756 Y135.325 F1000.000
G1 X-59.719 Y135.988 F1000.000
G1 X-59.606 Y142.125 F1000.000
G1 X-59.600 Y142.463 F800.000
G1 X-59.569 Y144.706 F800.000
G1 X-59.587 Y145.000 F800.000
G1 X-59.656 Y145.250 F800.000
G1 X-59.794 Y145.431 F800.000
G1 X-59.987 Y145.562 F800.000
G1 X-60.200 Y145.675 F800.000
G1 X-60.200 Y145.675 F800.000
G1 X-60.388 Y145.675 F800.000
G1 X-60.481 Y145.656 F800.000
G1 X-60.569 Y145.606 F800.000
G1 X-60.638 Y145.537 F800.000
G1 X-60.669 Y145.444 F800.000
G1 X-60.669 Y145.444 F800.000
G1 X-60.700 Y145.375 F800.000
G1 X-60.706 Y145.412 F800.000
G1 X-60.719 Y145.488 F800.000
G1 X-60.775 Y145.531 F800.000
G1 X-60.875 Y145.519 F800.000
G1 X-60.987 Y145.488 F800.000
G1 X-60.987 Y145.488 F800.000
G1 X-60.975 Y145.481 F800.000
G1 X-61.000 Y145.287 F800.000
G1 X-60.987 Y134.525 F800.000
G1 X-60.969 Y134.431 F800.000
G1 X-60.869 Y134.244 F800.000
G1 X-60.725 Y134.113 F800.000
G1 X-60.519 Y134.019 F800.000
G1 X-60.319 Y134.000 F800.000
G1 X60.419 Y134.006 F800.000
G1 X60.569 Y134.031 F800.000
G1 X60.744 Y134.119 F800.000
G1 X60.881 Y134.262 F800.000
G1 X60.975 Y134.463 F800.000
G1 X61.000 Y134.637 F800.000
G1 X60.987 Y145.475 F800.000
G1 X60.931 Y145.662 F800.000
G1 X60.881 Y145.744 F800.000
G1 X60.737 Y145.881 F800.000
G1 X60.519 Y145.981 F800.000
G1 X60.319 Y146.000 F800.000
G1 X-60.475 Y145.988 F800.000
G1 X-60.569 Y145.969 F800.000
G1 X-60.675 Y145.925 F800.000
G1 X-60.750 Y145.875 F800.000
G1 X-60.900 Y145.706 F800.000
G1 X-60.975 Y145.550 F800.000
G1 X-60.987 Y145.488 F800.000
G1 X-60.987 Y145.488 F800.000
G1 Z25.000 F1000.000
(Helix to depth: 13.000000)
G1 Z25.000 F1000.000
G1 X3.377 Y140.006 Z25.000 F1000.000
G1 X3.377 Y140.006 Z23.000 F1000.000
G1 X3.377 Y140.006 Z15.833 F800.000
G1 X3.377 Y140.006 Z15.833 F800.000
G1 X3.318 Y140.589 Z15.782 F800.000
G1 X3.145 Y141.149 Z15.730 F800.000
G1 X2.867 Y141.665 Z15.679 F800.000
G1 X2.493 Y142.117 Z15.627 F800.000
G1 X2.038 Y142.487 Z15.576 F800.000
G1 X1.520 Y142.761 Z15.524 F800.000
G1 X0.959 Y142.929 Z15.473 F800.000
G1 X0.375 Y142.984 Z15.421 F800.000
G1 X-0.208 Y142.924 Z15.370 F800.000
G1 X-0.768 Y142.751 Z15.318 F800.000
G1 X-1.284 Y142.473 Z15.266 F800.000
G1 X-1.736 Y142.099 Z15.215 F800.000
G1 X-2.106 Y141.645 Z15.163 F800.000
G1 X-2.380 Y141.126 Z15.112 F800.000
G1 X-2.547 Y140.565 Z15.060 F800.000
G1 X-2.602 Y139.981 Z15.009 F800.000
G1 X-2.543 Y139.398 Z14.957 F800.000
G1 X-2.370 Y138.838 Z14.906 F800.000
G1 X-2.092 Y138.322 Z14.854 F800.000
G1 X-1.718 Y137.871 Z14.803 F800.000
G1 X-1.263 Y137.501 Z14.751 F800.000
G1 X-0.745 Y137.227 Z14.700 F800.000
G1 X-0.184 Y137.059 Z14.648 F800.000
G1 X0.400 Y137.004 Z14.596 F800.000
G1 X0.983 Y137.064 Z14.545 F800.000
G1 X1.543 Y137.236 Z14.493 F800.000
G1 X2.059 Y137.515 Z14.442 F800.000
G1 X2.511 Y137.888 Z14.390 F800.000
G1 X2.881 Y138.343 Z14.339 F800.000
G1 X3.155 Y138.861 Z14.287 F800.000
G1 X3.322 Y139.423 Z14.236 F800.000
G1 X3.377 Y140.006 Z14.184 F800.000
G1 X3.318 Y140.589 Z14.133 F800.000
G1 X3.145 Y141.149 Z14.081 F800.000
G1 X2.867 Y141.665 Z14.030 F800.000
G1 X2.493 Y142.117 Z13.978 F800.000
G1 X2.038 Y142.487 Z13.927 F800.000
G1 X1.520 Y142.761 Z13.875 F800.000
G1 X0.959 Y142.929 Z13.823 F800.000
G1 X0.375 Y142.984 Z13.772 F800.000
G1 X-0.208 Y142.924 Z13.720 F800.000
G1 X-0.768 Y142.751 Z13.669 F800.000
G1 X-1.284 Y142.473 Z13.617 F800.000
G1 X-1.736 Y142.099 Z13.566 F800.000
G1 X-2.106 Y141.645 Z13.514 F800.000
G1 X-2.380 Y141.126 Z13.463 F800.000
G1 X-2.547 Y140.565 Z13.411 F800.000
G1 X-2.602 Y139.981 Z13.360 F800.000
G1 X-2.543 Y139.398 Z13.308 F800.000
G1 X-2.370 Y138.838 Z13.257 F800.000
G1 X-2.092 Y138.322 Z13.205 F800.000
G1 X-1.718 Y137.871 Z13.154 F800.000
G1 X-1.263 Y137.501 Z13.102 F800.000
G1 X-0.745 Y137.227 Z13.050 F800.000
G1 X-0.184 Y137.059 Z13.000 F800.000
G1 X0.400 Y137.004 Z13.000 F800.000
G1 X0.983 Y137.064 Z13.000 F800.000
G1 X1.543 Y137.236 Z13.000 F800.000
G1 X2.059 Y137.515 Z13.000 F800.000
G1 X2.511 Y137.888 Z13.000 F800.000
G1 X2.881 Y138.343 Z13.000 F800.000
G1 X3.155 Y138.861 Z13.000 F800.000
G1 X3.322 Y139.423 Z13.000 F800.000
G1 X3.377 Y140.006 Z13.000 F800.000
G1 X3.318 Y140.589 Z13.000 F800.000
G1 X3.145 Y141.149 Z13.000 F800.000
G1 X2.867 Y141.665 Z13.000 F800.000
G1 X2.493 Y142.117 Z13.000 F800.000
G1 X2.038 Y142.487 Z13.000 F800.000
G1 X1.520 Y142.761 Z13.000 F800.000
G1 X0.959 Y142.929 Z13.000 F800.000
G1 X0.375 Y142.984 Z13.000 F800.000
G1 X-0.208 Y142.924 Z13.000 F800.000
G1 X-0.768 Y142.751 Z13.000 F800.000
G1 X-1.284 Y142.473 Z13.000 F800.000
G1 X-1.736 Y142.099 Z13.000 F800.000
G1 X-2.106 Y141.645 Z13.000 F800.000
G1 X-2.380 Y141.126 Z13.000 F800.000
G1 X-2.547 Y140.565 Z13.000 F800.000
G1 X-2.602 Y139.981 Z13.000 F800.000
G1 X-2.543 Y139.398 Z13.000 F800.000
G1 X-2.370 Y138.838 Z13.000 F800.000
G1 X-2.092 Y138.322 Z13.000 F800.000
G1 X-1.718 Y137.871 Z13.000 F800.000
G1 X-1.263 Y137.501 Z13.000 F800.000
G1 X-0.745 Y137.227 Z13.000 F800.000
(Adaptive - depth: 13.000000)
G1 X0.388 Y136.994 F800.000
G1 X0.456 Y136.919 F800.000
G1 X0.506 Y136.831 F800.000
G1 X0.519 Y136.731 F800.000
G1 X0.781 Y136.069 F800.000
G1 X0.981 Y135.719 F800.000
G1 X1.494 Y135.175 F800.000
G1 X1.656 Y135.069 F800.000
G1 X1.750 Y135.031 F800.000
G1 X1.844 Y135.012 F800.000
G1 X2.381 Y134.781 F800.000
G1 X3.038 Y134.600 F800.000
G1 X3.600 Y134.537 F800.000
G1 X4.069 Y134.569 F800.000
G1 X5.006 Y134.812 F800.000
G1 X5.706 Y135.131 F800.000
G1 X5.950 Y135.287 F800.000
G1 X6.625 Y135.875 F800.000
G1 X7.206 Y136.419 F800.000
G1 X7.675 Y137.062 F800.000
G1 X7.888 Y137.444 F800.000
G1 X8.056 Y137.787 F800.000
G1 X8.213 Y138.287 F800.000
G1 X8.400 Y139.150 F800.000
G1 X8.450 Y139.944 F800.000
G1 X8.450 Y140.488 F800.000
G1 X8.419 Y141.081 F800.000
G1 X8.312 Y141.744 F800.000
G1 X8.175 Y142.331 F800.000
G1 X7.987 Y142.925 F800.000
G1 X7.744 Y143.506 F800.000
G1 X7.463 Y144.056 F800.000
G1 X7.138 Y144.588 F800.000
G1 X6.769 Y145.094 F800.000
G1 X6.606 Y145.219 F800.000
G1 X6.419 Y145.294 F800.000
G1 X6.281 Y145.444 F800.000
G1 X6.200 Y145.500 F800.000
G1 X6.106 Y145.531 F800.000
G1 X5.938 Y145.637 F800.000
G1 X5.844 Y145.675 F800.000
G1 X-3.425 Y145.644 F800.000
G1 X-4.081 Y145.506 F800.000
G1 X-4.638 Y145.300 F800.000
G1 X-4.987 Y145.113 F800.000
G1 X-5.225 Y144.938 F800.000
G1 X-5.356 Y144.781 F800.000
G1 X-5.450 Y144.600 F800.000
G1 X-5.787 Y144.325 F800.000
G1 X-6.419 Y143.425 F800.000
G1 X-6.919 Y142.800 F800.000
G1 X-7.300 Y142.094 F800.000
G1 X-7.569 Y141.412 F800.000
G1 X-7.681 Y140.969 F800.000
G1 X-7.744 Y140.594 F800.000
G1 X-7.781 Y139.681 F800.000
G1 X-7.706 Y138.881 F800.000
G1 X-7.606 Y138.338 F800.000
G1 X-7.475 Y137.775 F800.000
G1 X-7.263 Y137.162 F800.000
G1 X-7.025 Y136.619 F800.000
G1 X-6.744 Y136.088 F800.000
G1 X-6.406 Y135.569 F800.000
G1 X-6.119 Y135.037 F800.000
G1 X-5.975 Y134.887 F800.000
G1 X-5.631 Y134.644 F800.000
G1 X-5.537 Y134.594 F800.000
G1 X-5.331 Y134.356 F800.000
G1 X-5.237 Y134.319 F800.000
G1 X0.619 Y134.319 F800.000
G1 X0.619 Y134.319 F800.000
G1 X0.938 Y134.344 F800.000
G1 X1.250 Y134.387 F800.000
G1 X1.562 Y134.456 F800.000
G1 X1.856 Y134.512 F800.000
G1 X2.131 Y134.531 F800.000
G1 X2.394 Y134.519 F800.000
G1 X3.244 Y134.375 F800.000
G1 X3.862 Y134.319 F800.000
G1 X3.862 Y134.319 F800.000
G1 X9.863 Y134.350 F800.000
G1 X10.706 Y134.512 F800.000
G1 X11.419 Y134.812 F800.000
G1 X11.656 Y134.975 F800.000
G1 X11.800 Y135.100 F800.000
G1 X12.050 Y135.381 F800.000
G1 X12.556 Y135.994 F800.000
G1 X13.019 Y136.644 F800.000
G1 X13.363 Y137.363 F800.000
G1 X13.531 Y137.806 F800.000
G1 X13.662 Y138.225 F800.000
G1 X13.762 Y138.806 F800.000
G1 X13.887 Y139.287 F800.000
G1 X13.975 Y140.081 F800.000
G1 X14.056 Y141.625 F800.000
G1 X14.025 Y142.419 F800.000
G1 X13.956 Y143.213 F800.000
G1 X13.775 Y143.988 F800.000
G1 X13.650 Y144.456 F800.000
G1 X13.412 Y145.113 F800.000
G1 X13.269 Y145.250 F800.000
G1 X13.181 Y145.300 F800.000
G1 X13.069 Y145.463 F800.000
G1 X12.894 Y145.562 F800.000
G1 X12.825 Y145.631 F800.000
G1 X12.738 Y145.675 F800.000
G1 X8.037 Y145.675 F800.000
G1 X8.037 Y145.675 F800.000
G1 X7.713 Y145.644 F800.000
G1 X7.394 Y145.600 F800.000
G1 X7.081 Y145.531 F800.000
G1 X6.775 Y145.438 F800.000
G1 X6.487 Y145.306 F800.000
G1 X6.231 Y145.150 F800.000
G1 X6.044 Y144.956 F800.000
G1 X5.931 Y144.719 F1000.000
G1 X5.894 Y144.456 F1000.000
G1 X5.912 Y144.175 F1000.000
G1 X5.969 Y143.875 F1000.000
G1 X6.138 Y143.219 F1000.000
G1 X7.975 Y136.975 F1000.000
G1 X8.081 Y136.619 F800.000
G1 X8.312 Y135.906 F800.000
G1 X8.456 Y135.575 F800.000
G1 X8.637 Y135.281 F800.000
G1 X8.850 Y135.037 F800.000
G1 X9.100 Y134.838 F800.000
G1 X9.369 Y134.675 F800.000
G1 X9.656 Y134.544 F800.000
G1 X9.956 Y134.456 F800.000
G1 X10.269 Y134.394 F800.000
G1 X10.906 Y134.319 F800.000
G1 X10.906 Y134.319 F800.000
G1 X15.312 Y134.344 F800.000
G1 X16.250 Y134.550 F800.000
G1 X16.788 Y134.750 F800.000
G1 X17.125 Y134.938 F800.000
G1 X17.469 Y135.256 F800.000
G1 X18.012 Y135.963 F800.000
G1 X18.462 Y136.619 F800.000
G1 X19.075 Y137.831 F800.000
G1 X19.375 Y138.569 F800.000
G1 X19.613 Y139.325 F800.000
G1 X19.738 Y140.031 F800.000
G1 X19.800 Y140.506 F800.000
G1 X19.819 Y141.137 F800.000
G1 X19.887 Y141.725 F800.000
G1 X19.875 Y142.519 F800.000
G1 X19.800 Y144.106 F800.000
G1 X19.637 Y144.887 F800.000
G1 X19.538 Y145.056 F800.000
G1 X19.462 Y145.125 F800.000
G1 X19.375 Y145.175 F800.000
G1 X19.294 Y145.356 F800.000
G1 X19.131 Y145.481 F800.000
G1 X19.044 Y145.531 F800.000
G1 X18.894 Y145.669 F800.000
G1 X15.094 Y145.675 F800.000
G1 X15.094 Y145.675 F800.000
G1 X14.769 Y145.644 F800.000
G1 X14.450 Y145.600 F800.000
G1 X14.137 Y145.531 F800.000
G1 X13.831 Y145.438 F800.000
G1 X13.544 Y145.306 F800.000
G1 X13.287 Y145.150 F800.000
G1 X13.088 Y144.950 F800.000
G1 X12.956 Y144.713 F1000.000
G1 X12.894 Y144.444 F1000.000
G1 X12.881 Y144.150 F1000.000
G1 X12.938 Y143.525 F1000.000
G1 X13.969 Y137.025 F1000.000
G1 X14.031 Y136.662 F800.000
G1 X14.169 Y135.925 F800.000
G1 X14.281 Y135.588 F800.000
G1 X14.431 Y135.294 F800.000
G1 X14.631 Y135.044 F800.000
G1 X14.863 Y134.838 F800.000
G1 X15.131 Y134.675 F800.000
G1 X15.412 Y134.544 F800.000
G1 X15.713 Y134.456 F800.000
G1 X16.025 Y134.394 F800.000
G1 X16.663 Y134.319 F800.000
G1 X16.663 Y134.319 F800.000
G1 X20.881 Y134.338 F800.000
G1 X22.006 Y134.581 F800.000
G1 X22.375 Y134.706 F800.000
G1 X22.712 Y134.887 F800.000
G1 X23.006 Y135.131 F800.000
G1 X23.200 Y135.338 F800.000
G1 X23.719 Y135.944 F800.000
G1 X24.181 Y136.594 F800.000
G1 X24.512 Y137.162 F800.000
G1 X24.744 Y137.600 F800.000
G1 X25.025 Y138.300 F800.000
G1 X25.206 Y138.894 F800.000
G1 X25.350 Y139.488 F800.000
G1 X25.444 Y140.131 F800.000
G1 X25.594 Y140.738 F800.000
G1 X25.681 Y141.531 F800.000
G1 X25.750 Y142.325 F800.000
G1 X25.762 Y143.119 F800.000
G1 X25.738 Y143.869 F800.000
G1 X25.669 Y144.662 F800.000
G1 X25.481 Y145.438 F800.000
G1 X25.319 Y145.556 F800.000
G1 X25.225 Y145.588 F800.000
G1 X25.150 Y145.650 F800.000
G1 X25.050 Y145.675 F800.000
G1 X21.250 Y145.675 F800.000
G1 X21.250 Y145.675 F800.000
G1 X20.925 Y145.644 F800.000
G1 X20.606 Y145.600 F800.000
G1 X20.294 Y145.531 F800.000
G1 X19.988 Y145.438 F800.000
G1 X19.700 Y145.306 F800.000
G1 X19.438 Y145.150 F800.000
G1 X19.231 Y144.950 F800.000
G1 X19.087 Y144.713 F1000.000
G1 X19.000 Y144.444 F1000.000
G1 X18.962 Y144.150 F1000.000
G1 X18.950 Y143.525 F1000.000
G1 X19.294 Y137.044 F1000.000
G1 X19.312 Y136.675 F800.000
G1 X19.381 Y135.938 F800.000
G1 X19.456 Y135.594 F800.000
G1 X19.587 Y135.294 F800.000
G1 X19.769 Y135.044 F800.000
G1 X20.000 Y134.838 F800.000
G1 X20.256 Y134.675 F800.000
G1 X20.544 Y134.550 F800.000
G1 X20.837 Y134.456 F800.000
G1 X21.150 Y134.394 F800.000
G1 X21.788 Y134.319 F800.000
G1 X21.788 Y134.319 F800.000
G1 X26.756 Y134.363 F800.000
G1 X27.694 Y134.569 F800.000
G1 X28.056 Y134.694 F800.000
G1 X28.394 Y134.875 F800.000
G1 X28.700 Y135.113 F800.000
G1 X28.894 Y135.325 F800.000
G1 X29.869 Y136.581 F800.000
G1 X30.581 Y137.819 F800.000
G1 X30.869 Y138.562 F800.000
G1 X31.025 Y139.031 F800.000
G1 X31.188 Y139.669 F800.000
G1 X31.288 Y140.325 F800.000
G1 X31.444 Y140.900 F800.000
G1 X31.544 Y141.688 F800.000
G1 X31.700 Y143.275 F800.000
G1 X31.725 Y144.069 F800.000
G1 X31.631 Y144.863 F800.000
G1 X31.569 Y145.044 F800.000
G1 X31.506 Y145.119 F800.000
G1 X31.431 Y145.181 F800.000
G1 X31.406 Y145.275 F800.000
G1 X31.331 Y145.344 F800.000
G1 X31.288 Y145.431 F800.000
G1 X31.100 Y145.662 F800.000
G1 X27.200 Y145.675 F800.000
G1 X27.200 Y145.675 F800.000
G1 X26.875 Y145.644 F800.000
G1 X26.556 Y145.600 F800.000
G1 X26.244 Y145.531 F800.000
G1 X25.938 Y145.438 F800.000
G1 X25.650 Y145.306 F800.000
G1 X25.387 Y145.150 F800.000
G1 X25.175 Y144.950 F800.000
G1 X25.031 Y144.713 F1000.000
G1 X24.944 Y144.444 F1000.000
G1 X24.894 Y144.150 F1000.000
G1 X24.875 Y143.525 F1000.000
G1 X25.087 Y137.044 F1000.000
G1 X25.100 Y136.675 F800.000
G1 X25.150 Y135.938 F800.000
G1 X25.225 Y135.594 F800.000
G1 X25.350 Y135.294 F800.000
G1 X25.531 Y135.044 F800.000
G1 X25.756 Y134.838 F800.000
G1 X26.012 Y134.675 F800.000
G1 X26.300 Y134.550 F800.000
G1 X26.594 Y134.456 F800.000
G1 X26.906 Y134.394 F800.000
G1 X27.544 Y134.319 F800.000
G1 X27.544 Y134.319 F800.000
G1 X32.513 Y134.350 F800.000
G1 X33.356 Y134.512 F800.000
G1 X33.987 Y134.738 F800.000
G1 X34.406 Y134.981 F800.000
G1 X34.688 Y135.231 F800.000
G1 X34.819 Y135.369 F800.000
G1 X35.325 Y135.981 F800.000
G1 X35.775 Y136.637 F800.000
G1 X36.131 Y137.256 F800.000
G1 X36.362 Y137.725 F800.000
G1 X36.612 Y138.369 F800.000
G1 X36.788 Y138.969 F800.000
G1 X37.013 Y139.525 F800.000
G1 X37.206 Y140.300 F800.000
G1 X37.556 Y141.850 F800.000
G1 X37.675 Y142.637 F800.000
G1 X37.688 Y143.431 F800.000
G1 X37.650 Y143.963 F800.000
G1 X37.587 Y144.469 F800.000
G1 X37.431 Y145.100 F800.000
G1 X37.306 Y145.250 F800.000
G1 X37.219 Y145.306 F800.000
G1 X37.112 Y145.475 F800.000
G1 X36.938 Y145.581 F800.000
G1 X36.869 Y145.650 F800.000
G1 X36.769 Y145.675 F800.000
G1 X33.369 Y145.675 F800.000
G1 X33.369 Y145.675 F800.000
G1 X33.044 Y145.644 F800.000
G1 X32.725 Y145.600 F800.000
G1 X32.413 Y145.531 F800.000
G1 X32.106 Y145.438 F800.000
G1 X31.819 Y145.306 F800.000
G1 X31.556 Y145.150 F800.000
G1 X31.344 Y144.950 F800.000
G1 X31.188 Y144.713 F1000.000
G1 X31.094 Y144.444 F1000.000
G1 X31.038 Y144.150 F1000.000
G1 X30.988 Y143.525 F1000.000
G1 X30.931 Y137.044 F1000.000
G1 X30.931 Y136.675 F800.000
G1 X30.950 Y135.938 F800.000
G1 X31.006 Y135.594 F800.000
G1 X31.125 Y135.294 F800.000
G1 X31.300 Y135.044 F800.000
G1 X31.519 Y134.838 F800.000
G1 X31.781 Y134.675 F800.000
G1 X32.062 Y134.550 F800.000
G1 X32.362 Y134.456 F800.000
G1 X32.669 Y134.394 F800.000
G1 X33.306 Y134.319 F800.000
G1 X33.306 Y134.319 F800.000
G1 X38.181 Y134.338 F800.000
G1 X39.119 Y134.512 F800.000
G1 X39.750 Y134.750 F800.000
G1 X40.169 Y134.994 F800.000
G1 X40.388 Y135.181 F800.000
G1 X41.019 Y135.944 F800.000
G1 X41.450 Y136.613 F800.000
G1 X41.862 Y137.294 F800.000
G1 X42.250 Y137.988 F800.000
G1 X42.594 Y138.706 F800.000
G1 X42.906 Y139.438 F800.000
G1 X43.181 Y140.181 F800.000
G1 X43.444 Y141.469 F800.000
G1 X43.531 Y142.238 F800.000
G1 X43.544 Y142.950 F800.000
G1 X43.525 Y143.594 F800.000
G1 X43.444 Y144.300 F800.000
G1 X43.312 Y144.981 F800.000
G1 X43.200 Y145.150 F800.000
G1 X43.125 Y145.213 F800.000
G1 X43.094 Y145.306 F800.000
G1 X43.019 Y145.369 F800.000
G1 X42.975 Y145.456 F800.000
G1 X42.781 Y145.675 F800.000
G1 X39.181 Y145.675 F800.000
G1 X39.181 Y145.675 F800.000
G1 X38.856 Y145.644 F800.000
G1 X38.538 Y145.600 F800.000
G1 X38.225 Y145.531 F800.000
G1 X37.919 Y145.438 F800.000
G1 X37.631 Y145.306 F800.000
G1 X37.369 Y145.150 F800.000
G1 X37.156 Y144.950 F800.000
G1 X37.000 Y144.713 F1000.000
G1 X36.900 Y144.444 F1000.000
G1 X36.844 Y144.150 F1000.000
G1 X36.794 Y143.525 F1000.000
G1 X36.700 Y137.044 F1000.000
G1 X36.694 Y136.675 F800.000
G1 X36.712 Y135.938 F800.000
G1 X36.769 Y135.594 F800.000
G1 X36.881 Y135.294 F800.000
G1 X37.056 Y135.044 F800.000
G1 X37.281 Y134.838 F800.000
G1 X37.538 Y134.675 F800.000
G1 X37.819 Y134.550 F800.000
G1 X38.119 Y134.456 F800.000
G1 X38.425 Y134.394 F800.000
G1 X39.062 Y134.319 F800.000
G1 X39.062 Y134.319 F800.000
G1 X44.031 Y134.325 F800.000
G1 X45.062 Y134.525 F800.000
G1 X45.606 Y134.725 F800.000
G1 X46.031 Y134.956 F800.000
G1 X46.263 Y135.125 F800.000
G1 X46.469 Y135.331 F800.000
G1 X46.975 Y135.944 F800.000
G1 X47.462 Y136.569 F800.000
G1 X47.925 Y137.219 F800.000
G1 X48.525 Y138.400 F800.000
G1 X48.825 Y139.137 F800.000
G1 X49.038 Y139.850 F800.000
G1 X49.200 Y140.506 F800.000
G1 X49.325 Y141.238 F800.000
G1 X49.394 Y141.956 F800.000
G1 X49.419 Y142.669 F800.000
G1 X49.388 Y143.394 F800.000
G1 X49.306 Y144.113 F800.000
G1 X49.156 Y144.919 F800.000
G1 X49.119 Y145.006 F800.000
G1 X48.994 Y145.162 F800.000
G1 X48.962 Y145.256 F800.000
G1 X48.894 Y145.325 F800.000
G1 X48.844 Y145.406 F800.000
G1 X48.631 Y145.619 F800.000
G1 X48.550 Y145.675 F800.000
G1 X45.050 Y145.675 F800.000
G1 X45.050 Y145.675 F800.000
G1 X44.725 Y145.644 F800.000
G1 X44.406 Y145.600 F800.000
G1 X44.094 Y145.531 F800.000
G1 X43.788 Y145.438 F800.000
G1 X43.500 Y145.306 F800.000
G1 X43.237 Y145.150 F800.000
G1 X43.031 Y144.950 F800.000
G1 X42.881 Y144.713 F1000.000
G1 X42.794 Y144.444 F1000.000
G1 X42.750 Y144.150 F1000.000
G1 X42.731 Y143.525 F1000.000
G1 X42.994 Y137.044 F1000.000
G1 X43.013 Y136.675 F800.000
G1 X43.069 Y135.938 F800.000
G1 X43.138 Y135.594 F800.000
G1 X43.269 Y135.294 F800.000
G1 X43.450 Y135.044 F800.000
G1 X43.675 Y134.838 F800.000
G1 X43.931 Y134.675 F800.000
G1 X44.219 Y134.550 F800.000
G1 X44.513 Y134.456 F800.000
G1 X44.825 Y134.394 F800.000
G1 X45.462 Y134.319 F800.000
G1 X45.462 Y134.319 F800.000
G1 X47.244 Y134.319 F800.000
G1 X47.337 Y134.344 F800.000
G1 X47.431 Y134.319 F800.000
G1 X47.712 Y134.331 F800.000
G1 X50.150 Y134.344 F800.000
G1 X51.181 Y134.544 F800.000
G1 X51.812 Y134.794 F800.000
G1 X52.219 Y135.050 F800.000
G1 X52.494 Y135.319 F800.000
G1 X52.987 Y135.944 F800.000
G1 X53.462 Y136.581 F800.000
G1 X53.913 Y137.238 F800.000
G1 X54.481 Y138.431 F800.000
G1 X54.769 Y139.175 F800.000
G1 X54.969 Y139.900 F800.000
G1 X55.119 Y140.556 F800.000
G1 X55.231 Y141.287 F800.000
G1 X55.288 Y142.006 F800.000
G1 X55.294 Y142.713 F800.000
G1 X55.250 Y143.438 F800.000
G1 X55.156 Y144.156 F800.000
G1 X55.013 Y144.863 F800.000
G1 X54.938 Y145.044 F800.000
G1 X54.875 Y145.125 F800.000
G1 X54.800 Y145.194 F800.000
G1 X54.706 Y145.363 F800.000
G1 X54.500 Y145.575 F800.000
G1 X54.419 Y145.637 F800.000
G1 X54.325 Y145.675 F800.000
G1 X50.625 Y145.675 F800.000
G1 X50.625 Y145.675 F800.000
G1 X50.300 Y145.644 F800.000
G1 X49.981 Y145.600 F800.000
G1 X49.669 Y145.531 F800.000
G1 X49.362 Y145.438 F800.000
G1 X49.075 Y145.306 F800.000
G1 X48.812 Y145.150 F800.000
G1 X48.606 Y144.950 F800.000
G1 X48.462 Y144.713 F1000.000
G1 X48.381 Y144.444 F1000.000
G1 X48.344 Y144.150 F1000.000
G1 X48.331 Y143.525 F1000.000
G1 X48.719 Y137.044 F1000.000
G1 X48.744 Y136.675 F800.000
G1 X48.812 Y135.938 F800.000
G1 X48.894 Y135.594 F800.000
G1 X49.025 Y135.294 F800.000
G1 X49.206 Y135.044 F800.000
G1 X49.438 Y134.838 F800.000
G1 X49.694 Y134.675 F800.000
G1 X49.981 Y134.550 F800.000
G1 X50.275 Y134.456 F800.000
G1 X50.587 Y134.394 F800.000
G1 X51.225 Y134.319 F800.000
G1 X51.225 Y134.319 F800.000
G1 X56.006 Y134.338 F800.000
G1 X57.131 Y134.581 F800.000
G1 X57.756 Y134.831 F800.000
G1 X58.000 Y134.981 F800.000
G1 X58.419 Y135.381 F800.000
G1 X58.975 Y135.950 F800.000
G1 X59.444 Y136.594 F800.000
G1 X59.781 Y137.162 F800.000
G1 X60.031 Y137.781 F800.000
G1 X60.475 Y140.219 F800.000
G1 X60.656 Y143.781 F800.000
G1 X60.525 Y145.469 F800.000
G1 X60.494 Y145.562 F800.000
G1 X60.431 Y145.637 F800.000
G1 X60.337 Y145.675 F800.000
G1 X56.938 Y145.675 F800.000
G1 X56.938 Y145.675 F800.000
G1 X56.612 Y145.644 F800.000
G1 X56.294 Y145.600 F800.000
G1 X55.981 Y145.531 F800.000
G1 X55.675 Y145.438 F800.000
G1 X55.388 Y145.306 F800.000
G1 X55.125 Y145.150 F800.000
G1 X54.913 Y144.950 F800.000
G1 X54.763 Y144.713 F1000.000
G1 X54.669 Y144.444 F1000.000
G1 X54.612 Y144.150 F1000.000
G1 X54.569 Y143.525 F1000.000
G1 X54.587 Y137.044 F1000.000
G1 X54.594 Y136.675 F800.000
G1 X54.619 Y135.938 F800.000
G1 X54.681 Y135.594 F800.000
G1 X54.800 Y135.294 F800.000
G1 X54.981 Y135.044 F800.000
G1 X55.200 Y134.838 F800.000
G1 X55.462 Y134.675 F800.000
G1 X55.744 Y134.550 F800.000
G1 X56.044 Y134.456 F800.000
G1 X56.350 Y134.394 F800.000
G1 X56.987 Y134.319 F800.000
G1 X56.987 Y134.319 F800.000
G1 X60.362 Y134.319 F800.000
G1 X60.456 Y134.338 F800.000
G1 X60.544 Y134.375 F800.000
G1 X60.612 Y134.438 F800.000
G1 X60.656 Y134.525 F800.000
G1 X60.675 Y134.619 F800.000
G1 X60.675 Y138.088 F800.000
G1 X60.675 Y138.088 F800.000
G1 X60.669 Y138.406 F800.000
G1 X60.663 Y138.725 F1000.000
G1 X60.581 Y141.381 F1000.000
G1 X60.581 Y141.750 F800.000
G1 X60.656 Y145.475 F800.000
G1 X60.656 Y145.475 F800.000
G1 X60.612 Y145.562 F800.000
G1 X60.544 Y145.631 F800.000
G1 X60.544 Y145.631 F800.000
G1 X59.244 Y145.637 F800.000
G1 X58.919 Y145.625 F800.000
G1 X58.600 Y145.594 F800.000
G1 X58.300 Y145.525 F800.000
G1 X58.025 Y145.406 F1000.000
G1 X57.775 Y145.231 F1000.000
G1 X57.538 Y145.025 F1000.000
G1 X57.100 Y144.550 F1000.000
G1 X55.819 Y143.025 F1000.000
G1 X55.600 Y142.794 F1000.000
G1 X55.356 Y142.594 F1000.000
G1 X55.094 Y142.456 F1000.000
G1 X54.800 Y142.375 F1000.000
G1 X54.494 Y142.331 F1000.000
G1 X53.850 Y142.306 F1000.000
G1 X49.219 Y142.369 F1000.000
G1 X34.194 Y142.281 F1000.000
G1 X28.262 Y142.394 F1000.000
G1 X23.794 Y142.244 F1000.000
G1 X8.238 Y142.281 F1000.000
G1 X2.081 Y142.381 F1000.000
G1 X1.744 Y142.394 F1000.000
G1 X1.425 Y142.444 F1000.000
G1 X1.113 Y142.537 F1000.000
G1 X0.812 Y142.675 F1000.000
G1 X0.525 Y142.844 F1000.000
G1 X-0.581 Y143.644 F1000.000
G1 X-0.850 Y143.844 F800.000
G1 X-2.144 Y144.831 F800.000
G1 X-2.688 Y145.175 F800.000
G1 X-2.969 Y145.325 F800.000
G1 X-3.269 Y145.444 F800.000
G1 X-3.575 Y145.531 F800.000
G1 X-3.888 Y145.594 F800.000
G1 X-4.525 Y145.675 F800.000
G1 X-4.525 Y145.675 F800.000
G1 X-6.025 Y145.675 F800.000
G1 X-6.119 Y145.644 F800.000
G1 X-6.206 Y145.675 F800.000
G1 X-6.300 Y145.675 F800.000
G1 X-6.394 Y145.656 F800.000
G1 X-6.487 Y145.675 F800.000
G1 X-8.644 Y145.644 F800.000
G1 X-9.300 Y145.519 F800.000
G1 X-9.856 Y145.312 F800.000
G1 X-10.206 Y145.125 F800.000
G1 X-10.450 Y144.950 F800.000
G1 X-11.281 Y144.094 F800.000
G1 X-11.800 Y143.481 F800.000
G1 X-12.219 Y142.812 F800.000
G1 X-12.438 Y142.344 F800.000
G1 X-12.594 Y141.956 F800.000
G1 X-12.731 Y141.431 F800.000
G1 X-12.881 Y140.963 F800.000
G1 X-13.019 Y140.169 F800.000
G1 X-13.162 Y138.744 F800.000
G1 X-13.156 Y137.944 F800.000
G1 X-13.113 Y137.175 F800.000
G1 X-13.025 Y136.375 F800.000
G1 X-12.881 Y135.588 F800.000
G1 X-12.625 Y134.831 F800.000
G1 X-12.344 Y134.525 F800.000
G1 X-12.100 Y134.331 F800.000
G1 X-8.000 Y134.319 F800.000
G1 X-8.000 Y134.319 F800.000
G1 X-7.675 Y134.338 F800.000
G1 X-7.356 Y134.381 F800.000
G1 X-7.044 Y134.444 F800.000
G1 X-6.737 Y134.537 F800.000
G1 X-6.450 Y134.662 F800.000
G1 X-6.194 Y134.819 F800.000
G1 X-5.994 Y135.012 F800.000
G1 X-5.862 Y135.250 F1000.000
G1 X-5.806 Y135.519 F1000.000
G1 X-5.794 Y135.812 F1000.000
G1 X-5.850 Y136.438 F1000.000
G1 X-6.931 Y142.912 F1000.000
G1 X-6.987 Y143.238 F800.000
G1 X-7.100 Y143.881 F800.000
G1 X-7.169 Y144.188 F800.000
G1 X-7.275 Y144.475 F800.000
G1 X-7.419 Y144.738 F800.000
G1 X-7.612 Y144.963 F800.000
G1 X-7.850 Y145.150 F800.000
G1 X-8.113 Y145.312 F800.000
G1 X-8.394 Y145.438 F800.000
G1 X-8.694 Y145.531 F800.000
G1 X-9.006 Y145.594 F800.000
G1 X-9.644 Y145.675 F800.000
G1 X-9.644 Y145.675 F800.000
G1 X-13.675 Y145.662 F800.000
G1 X-14.706 Y145.456 F800.000
G1 X-15.344 Y145.194 F800.000
G1 X-15.825 Y144.844 F800.000
G1 X-16.031 Y144.631 F800.000
G1 X-16.562 Y144.031 F800.000
G1 X-17.081 Y143.419 F800.000
G1 X-17.569 Y142.787 F800.000
G1 X-17.931 Y142.075 F800.000
G1 X-18.100 Y141.656 F800.000
G1 X-18.250 Y141.225 F800.000
G1 X-18.363 Y140.656 F800.000
G1 X-18.506 Y140.188 F800.000
G1 X-18.631 Y139.394 F800.000
G1 X-18.806 Y137.806 F800.000
G1 X-18.819 Y137.006 F800.000
G1 X-18.806 Y136.206 F800.000
G1 X-18.762 Y135.406 F800.000
G1 X-18.600 Y134.619 F800.000
G1 X-18.531 Y134.537 F800.000
G1 X-18.356 Y134.425 F800.000
G1 X-18.281 Y134.350 F800.000
G1 X-18.181 Y134.319 F800.000
G1 X-15.681 Y134.319 F800.000
G1 X-15.681 Y134.319 F800.000
G1 X-15.356 Y134.338 F800.000
G1 X-15.037 Y134.381 F800.000
G1 X-14.725 Y134.444 F800.000
G1 X-14.419 Y134.537 F800.000
G1 X-14.131 Y134.662 F800.000
G1 X-13.869 Y134.819 F800.000
G1 X-13.644 Y135.012 F800.000
G1 X-13.481 Y135.250 F1000.000
G1 X-13.363 Y135.519 F1000.000
G1 X-13.287 Y135.812 F1000.000
G1 X-13.188 Y136.438 F1000.000
G1 X-12.562 Y142.900 F1000.000
G1 X-12.531 Y143.231 F800.000
G1 X-12.475 Y143.875 F800.000
G1 X-12.463 Y144.188 F800.000
G1 X-12.500 Y144.475 F800.000
G1 X-12.600 Y144.731 F800.000
G1 X-12.769 Y144.963 F800.000
G1 X-12.981 Y145.150 F800.000
G1 X-13.238 Y145.312 F800.000
G1 X-13.519 Y145.438 F800.000
G1 X-13.819 Y145.531 F800.000
G1 X-14.125 Y145.594 F800.000
G1 X-14.762 Y145.675 F800.000
G1 X-14.762 Y145.675 F800.000
G1 X-19.169 Y145.650 F800.000
G1 X-19.637 Y145.581 F800.000
G1 X-20.663 Y145.238 F800.000
G1 X-20.925 Y145.100 F800.000
G1 X-21.312 Y144.794 F800.000
G1 X-22.000 Y144.062 F800.000
G1 X-23.000 Y142.812 F800.000
G1 X-23.644 Y141.656 F800.000
G1 X-23.975 Y140.925 F800.000
G1 X-24.225 Y140.194 F800.000
G1 X-24.419 Y139.537 F800.000
G1 X-24.581 Y138.794 F800.000
G1 X-24.681 Y138.069 F800.000
G1 X-24.738 Y137.350 F800.000
G1 X-24.744 Y136.613 F800.000
G1 X-24.700 Y135.881 F800.000
G1 X-24.606 Y135.150 F800.000
G1 X-24.544 Y134.950 F800.000
G1 X-24.419 Y134.787 F800.000
G1 X-24.375 Y134.694 F800.000
G1 X-24.175 Y134.450 F800.000
G1 X-24.019 Y134.319 F800.000
G1 X-21.819 Y134.319 F800.000
G1 X-21.819 Y134.319 F800.000
G1 X-21.494 Y134.338 F800.000
G1 X-21.175 Y134.381 F800.000
G1 X-20.863 Y134.444 F800.000
G1 X-20.556 Y134.537 F800.000
G1 X-20.269 Y134.662 F800.000
G1 X-20.000 Y134.819 F800.000
G1 X-19.781 Y135.012 F800.000
G1 X-19.606 Y135.250 F1000.000
G1 X-19.481 Y135.519 F1000.000
G1 X-19.394 Y135.812 F1000.000
G1 X-19.269 Y136.438 F1000.000
G1 X-18.394 Y142.906 F1000.000
G1 X-18.350 Y143.238 F800.000
G1 X-18.269 Y143.875 F800.000
G1 X-18.250 Y144.188 F800.000
G1 X-18.281 Y144.475 F800.000
G1 X-18.375 Y144.738 F800.000
G1 X-18.538 Y144.963 F800.000
G1 X-18.750 Y145.150 F800.000
G1 X-19.000 Y145.312 F800.000
G1 X-19.281 Y145.438 F800.000
G1 X-19.581 Y145.531 F800.000
G1 X-19.887 Y145.594 F800.000
G1 X-20.525 Y145.675 F800.000
G1 X-20.525 Y145.675 F800.000
G1 X-24.744 Y145.650 F800.000
G1 X-25.775 Y145.438 F800.000
G1 X-26.413 Y145.175 F800.000
G1 X-26.831 Y144.906 F800.000
G1 X-26.975 Y144.769 F800.000
G1 X-27.038 Y144.688 F800.000
G1 X-27.731 Y144.119 F800.000
G1 X-28.269 Y143.525 F800.000
G1 X-28.756 Y142.894 F800.000
G1 X-29.031 Y142.444 F800.000
G1 X-29.256 Y142.019 F800.000
G1 X-29.475 Y141.456 F800.000
G1 X-29.700 Y140.975 F800.000
G1 X-29.938 Y140.206 F800.000
G1 X-30.319 Y138.688 F800.000
G1 X-30.438 Y137.894 F800.000
G1 X-30.519 Y137.094 F800.000
G1 X-30.562 Y136.294 F800.000
G1 X-30.425 Y134.981 F800.000
G1 X-30.387 Y134.887 F800.000
G1 X-30.331 Y134.800 F800.000
G1 X-30.256 Y134.725 F800.000
G1 X-30.144 Y134.550 F800.000
G1 X-29.913 Y134.344 F800.000
G1 X-29.812 Y134.319 F800.000
G1 X-27.712 Y134.319 F800.000
G1 X-27.712 Y134.319 F800.000
G1 X-27.387 Y134.338 F800.000
G1 X-27.069 Y134.381 F800.000
G1 X-26.756 Y134.444 F800.000
G1 X-26.450 Y134.537 F800.000
G1 X-26.163 Y134.662 F800.000
G1 X-25.894 Y134.819 F800.000
G1 X-25.663 Y135.019 F800.000
G1 X-25.481 Y135.250 F1000.000
G1 X-25.344 Y135.525 F1000.000
G1 X-25.231 Y135.819 F1000.000
G1 X-25.062 Y136.444 F1000.000
G1 X-23.663 Y142.919 F1000.000
G1 X-23.594 Y143.250 F800.000
G1 X-23.462 Y143.887 F800.000
G1 X-23.419 Y144.194 F800.000
G1 X-23.431 Y144.481 F800.000
G1 X-23.512 Y144.738 F800.000
G1 X-23.663 Y144.963 F800.000
G1 X-23.875 Y145.150 F800.000
G1 X-24.125 Y145.312 F800.000
G1 X-24.400 Y145.438 F800.000
G1 X-24.700 Y145.531 F800.000
G1 X-25.006 Y145.594 F800.000
G1 X-25.644 Y145.675 F800.000
G1 X-25.644 Y145.675 F800.000
G1 X-30.425 Y145.650 F800.000
G1 X-31.550 Y145.419 F800.000
G1 X-32.188 Y145.156 F800.000
G1 X-32.513 Y144.931 F800.000
G1 X-32.712 Y144.713 F800.000
G1 X-32.788 Y144.650 F800.000
G1 X-33.869 Y143.512 F800.000
G1 X-34.369 Y142.887 F800.000
G1 X-35.075 Y141.769 F800.000
G1 X-35.431 Y141.050 F800.000
G1 X-35.706 Y140.381 F800.000
G1 X-35.950 Y139.700 F800.000
G1 X-36.150 Y138.956 F800.000
G1 X-36.294 Y138.238 F800.000
G1 X-36.394 Y137.506 F800.000
G1 X-36.444 Y136.756 F800.000
G1 X-36.444 Y136.019 F800.000
G1 X-36.394 Y135.275 F800.000
G1 X-36.306 Y135.088 F800.000
G1 X-36.250 Y135.000 F800.000
G1 X-36.237 Y134.900 F800.000
G1 X-36.119 Y134.731 F800.000
G1 X-36.044 Y134.656 F800.000
G1 X-36.000 Y134.562 F800.000
G1 X-35.781 Y134.338 F800.000
G1 X-35.681 Y134.319 F800.000
G1 X-33.581 Y134.319 F800.000
G1 X-33.581 Y134.319 F800.000
G1 X-33.256 Y134.338 F800.000
G1 X-32.938 Y134.381 F800.000
G1 X-32.625 Y134.444 F800.000
G1 X-32.319 Y134.537 F800.000
G1 X-32.031 Y134.662 F800.000
G1 X-31.762 Y134.819 F800.000
G1 X-31.531 Y135.012 F800.000
G1 X-31.350 Y135.244 F1000.000
G1 X-31.206 Y135.506 F1000.000
G1 X-31.100 Y135.787 F1000.000
G1 X-30.925 Y136.394 F1000.000
G1 X-29.438 Y142.944 F1000.000
G1 X-29.369 Y143.262 F800.000
G1 X-29.231 Y143.894 F800.000
G1 X-29.188 Y144.200 F800.000
G1 X-29.194 Y144.481 F800.000
G1 X-29.269 Y144.738 F800.000
G1 X-29.419 Y144.963 F800.000
G1 X-29.631 Y145.150 F800.000
G1 X-29.881 Y145.312 F800.000
G1 X-30.156 Y145.438 F800.000
G1 X-30.456 Y145.531 F800.000
G1 X-30.762 Y145.594 F800.000
G1 X-31.400 Y145.675 F800.000
G1 X-31.400 Y145.675 F800.000
G1 X-33.931 Y145.675 F800.000
G1 X-34.025 Y145.656 F800.000
G1 X-34.119 Y145.675 F800.000
G1 X-36.275 Y145.650 F800.000
G1 X-37.119 Y145.481 F800.000
G1 X-37.675 Y145.275 F800.000
G1 X-38.181 Y144.975 F800.000
G1 X-38.544 Y144.625 F800.000
G1 X-39.188 Y144.150 F800.000
G1 X-39.744 Y143.575 F800.000
G1 X-40.244 Y142.950 F800.000
G1 X-40.594 Y142.431 F800.000
G1 X-40.844 Y142.006 F800.000
G1 X-41.119 Y141.406 F800.000
G1 X-41.312 Y140.856 F800.000
G1 X-41.462 Y140.306 F800.000
G1 X-41.688 Y139.750 F800.000
G1 X-42.038 Y138.188 F800.000
G1 X-42.144 Y137.394 F800.000
G1 X-42.200 Y136.700 F800.000
G1 X-42.231 Y135.900 F800.000
G1 X-42.131 Y135.100 F800.000
G1 X-42.025 Y134.919 F800.000
G1 X-41.950 Y134.844 F800.000
G1 X-41.931 Y134.744 F800.000
G1 X-41.775 Y134.606 F800.000
G1 X-41.600 Y134.344 F800.000
G1 X-41.500 Y134.319 F800.000
G1 X-39.400 Y134.319 F800.000
G1 X-39.400 Y134.319 F800.000
G1 X-39.075 Y134.338 F800.000
G1 X-38.756 Y134.381 F800.000
G1 X-38.444 Y134.444 F800.000
G1 X-38.138 Y134.537 F800.000
G1 X-37.850 Y134.662 F800.000
G1 X-37.581 Y134.819 F800.000
G1 X-37.350 Y135.012 F800.000
G1 X-37.169 Y135.244 F1000.000
G1 X-37.025 Y135.506 F1000.000
G1 X-36.913 Y135.787 F1000.000
G1 X-36.737 Y136.394 F1000.000
G1 X-35.212 Y142.944 F1000.000
G1 X-35.138 Y143.262 F800.000
G1 X-34.994 Y143.894 F800.000
G1 X-34.950 Y144.200 F800.000
G1 X-34.956 Y144.481 F800.000
G1 X-35.031 Y144.738 F800.000
G1 X-35.181 Y144.963 F800.000
G1 X-35.394 Y145.150 F800.000
G1 X-35.644 Y145.312 F800.000
G1 X-35.919 Y145.438 F800.000
G1 X-36.219 Y145.531 F800.000
G1 X-36.525 Y145.594 F800.000
G1 X-37.163 Y145.675 F800.000
G1 X-37.163 Y145.675 F800.000
G1 X-42.225 Y145.644 F800.000
G1 X-42.881 Y145.506 F800.000
G1 X-43.531 Y145.269 F800.000
G1 X-43.956 Y145.025 F800.000
G1 X-44.112 Y144.900 F800.000
G1 X-44.394 Y144.619 F800.000
G1 X-44.981 Y144.075 F800.000
G1 X-45.544 Y143.506 F800.000
G1 X-46.031 Y142.875 F800.000
G1 X-46.669 Y141.850 F800.000
G1 X-47.006 Y141.125 F800.000
G1 X-47.237 Y140.519 F800.000
G1 X-47.431 Y139.900 F800.000
G1 X-47.581 Y139.219 F800.000
G1 X-47.681 Y138.556 F800.000
G1 X-47.837 Y137.906 F800.000
G1 X-47.925 Y137.106 F800.000
G1 X-47.994 Y136.306 F800.000
G1 X-47.894 Y135.037 F800.000
G1 X-47.862 Y134.938 F800.000
G1 X-47.812 Y134.844 F800.000
G1 X-47.744 Y134.762 F800.000
G1 X-47.638 Y134.581 F800.000
G1 X-47.413 Y134.363 F800.000
G1 X-47.319 Y134.319 F800.000
G1 X-45.119 Y134.319 F800.000
G1 X-45.119 Y134.319 F800.000
G1 X-44.794 Y134.338 F800.000
G1 X-44.475 Y134.381 F800.000
G1 X-44.163 Y134.444 F800.000
G1 X-43.856 Y134.537 F800.000
G1 X-43.569 Y134.662 F800.000
G1 X-43.300 Y134.819 F800.000
G1 X-43.069 Y135.012 F800.000
G1 X-42.888 Y135.244 F1000.000
G1 X-42.744 Y135.506 F1000.000
G1 X-42.631 Y135.787 F1000.000
G1 X-42.462 Y136.394 F1000.000
G1 X-40.962 Y142.944 F1000.000
G1 X-40.894 Y143.262 F800.000
G1 X-40.756 Y143.894 F800.000
G1 X-40.712 Y144.200 F800.000
G1 X-40.719 Y144.481 F800.000
G1 X-40.794 Y144.738 F800.000
G1 X-40.944 Y144.963 F800.000
G1 X-41.156 Y145.150 F800.000
G1 X-41.406 Y145.312 F800.000
G1 X-41.681 Y145.438 F800.000
G1 X-41.981 Y145.531 F800.000
G1 X-42.288 Y145.594 F800.000
G1 X-42.925 Y145.675 F800.000
G1 X-42.925 Y145.675 F800.000
G1 X-47.800 Y145.637 F800.000
G1 X-48.456 Y145.537 F800.000
G1 X-49.112 Y145.350 F800.000
G1 X-49.650 Y145.100 F800.000
G1 X-50.031 Y144.781 F800.000
G1 X-50.169 Y144.631 F800.000
G1 X-50.806 Y144.150 F800.000
G1 X-51.325 Y143.637 F800.000
G1 X-51.812 Y143.006 F800.000
G1 X-52.138 Y142.506 F800.000
G1 X-52.381 Y142.100 F800.000
G1 X-52.688 Y141.412 F800.000
G1 X-52.888 Y140.856 F800.000
G1 X-53.050 Y140.294 F800.000
G1 X-53.269 Y139.700 F800.000
G1 X-53.763 Y137.344 F800.000
G1 X-53.794 Y136.544 F800.000
G1 X-53.731 Y135.412 F800.000
G1 X-53.600 Y134.700 F800.000
G1 X-53.231 Y134.325 F800.000
G1 X-50.931 Y134.319 F800.000
G1 X-50.931 Y134.319 F800.000
G1 X-50.606 Y134.338 F800.000
G1 X-50.288 Y134.381 F800.000
G1 X-49.975 Y134.444 F800.000
G1 X-49.669 Y134.537 F800.000
G1 X-49.381 Y134.662 F800.000
G1 X-49.112 Y134.819 F800.000
G1 X-48.881 Y135.012 F800.000
G1 X-48.700 Y135.244 F1000.000
G1 X-48.556 Y135.506 F1000.000
G1 X-48.444 Y135.787 F1000.000
G1 X-48.263 Y136.394 F1000.000
G1 X-46.731 Y142.944 F1000.000
G1 X-46.656 Y143.262 F800.000
G1 X-46.513 Y143.894 F800.000
G1 X-46.469 Y144.200 F800.000
G1 X-46.475 Y144.481 F800.000
G1 X-46.550 Y144.738 F800.000
G1 X-46.700 Y144.963 F800.000
G1 X-46.913 Y145.150 F800.000
G1 X-47.163 Y145.312 F800.000
G1 X-47.438 Y145.438 F800.000
G1 X-47.737 Y145.531 F800.000
G1 X-48.044 Y145.594 F800.000
G1 X-48.681 Y145.675 F800.000
G1 X-48.681 Y145.675 F800.000
G1 X-53.744 Y145.637 F800.000
G1 X-54.494 Y145.481 F800.000
G1 X-55.050 Y145.275 F800.000
G1 X-55.475 Y145.031 F800.000
G1 X-55.700 Y144.844 F800.000
G1 X-55.913 Y144.631 F800.000
G1 X-56.544 Y144.137 F800.000
G1 X-57.100 Y143.562 F800.000
G1 X-57.600 Y142.938 F800.000
G1 X-57.938 Y142.419 F800.000
G1 X-58.169 Y142.006 F800.000
G1 X-58.425 Y141.419 F800.000
G1 X-58.606 Y140.875 F800.000
G1 X-58.837 Y140.375 F800.000
G1 X-59.056 Y139.600 F800.000
G1 X-59.456 Y138.050 F800.000
G1 X-59.581 Y136.656 F800.000
G1 X-59.606 Y135.856 F800.000
G1 X-59.556 Y135.056 F800.000
G1 X-59.450 Y134.875 F800.000
G1 X-59.375 Y134.806 F800.000
G1 X-59.319 Y134.606 F800.000
G1 X-59.256 Y134.519 F800.000
G1 X-59.163 Y134.475 F800.000
G1 X-59.094 Y134.394 F800.000
G1 X-59.013 Y134.325 F800.000
G1 X-56.812 Y134.319 F800.000
G1 X-56.812 Y134.319 F800.000
G1 X-56.487 Y134.338 F800.000
G1 X-56.169 Y134.381 F800.000
G1 X-55.856 Y134.444 F800.000
G1 X-55.550 Y134.537 F800.000
G1 X-55.263 Y134.662 F800.000
G1 X-54.994 Y134.819 F800.000
G1 X-54.763 Y135.012 F800.000
G1 X-54.575 Y135.244 F1000.000
G1 X-54.431 Y135.506 F1000.000
G1 X-54.312 Y135.787 F1000.000
G1 X-54.131 Y136.394 F1000.000
G1 X-52.519 Y142.950 F1000.000
G1 X-52.438 Y143.269 F800.000
G1 X-52.288 Y143.900 F800.000
G1 X-52.237 Y144.200 F800.000
G1 X-52.244 Y144.481 F800.000
G1 X-52.319 Y144.738 F800.000
G1 X-52.469 Y144.963 F800.000
G1 X-52.675 Y145.156 F800.000
G1 X-52.925 Y145.312 F800.000
G1 X-53.200 Y145.438 F800.000
G1 X-53.500 Y145.531 F800.000
G1 X-53.806 Y145.594 F800.000
G1 X-54.444 Y145.675 F800.000
G1 X-54.444 Y145.675 F800.000
G1 X-59.319 Y145.650 F800.000
G1 X-59.881 Y145.575 F800.000
G1 X-60.444 Y145.419 F800.000
G1 X-60.625 Y145.175 F800.000
G1 X-60.675 Y145.088 F800.000
G1 X-60.675 Y134.588 F800.000
G1 X-60.644 Y134.488 F800.000
G1 X-60.581 Y134.406 F800.000
G1 X-60.494 Y134.350 F800.000
G1 X-60.394 Y134.319 F800.000
G1 X-60.394 Y134.319 F800.000
G1 X-60.156 Y134.406 F800.000
G1 X-59.981 Y134.562 F1000.000
G1 X-59.862 Y134.775 F1000.000
G1 X-59.794 Y135.037 F1000.000
G1 X-59.756 Y135.325 F1000.000
G1 X-59.719 Y135.988 F1000.000
G1 X-59.606 Y142.125 F1000.000
G1 X-59.600 Y142.463 F800.000
G1 X-59.569 Y144.706 F800.000
G1 X-59.587 Y145.000 F800.000
G1 X-59.656 Y145.250 F800.000
G1 X-59.794 Y145.431 F800.000
G1 X-59.987 Y145.562 F800.000
G1 X-60.200 Y145.675 F800.000
G1 X-60.200 Y145.675 F800.000
G1 X-60.388 Y145.675 F800.000
G1 X-60.481 Y145.656 F800.000
G1 X-60.569 Y145.606 F800.000
G1 X-60.638 Y145.537 F800.000
G1 X-60.669 Y145.444 F800.000
G1 X-60.669 Y145.444 F800.000
G1 X-60.700 Y145.375 F800.000
G1 X-60.706 Y145.412 F800.000
G1 X-60.719 Y145.488 F800.000
G1 X-60.775 Y145.531 F800.000
G1 X-60.875 Y145.519 F800.000
G1 X-60.987 Y145.488 F800.000
G1 X-60.987 Y145.488 F800.000
G1 X-60.975 Y145.481 F800.000
G1 X-61.000 Y145.287 F800.000
G1 X-60.987 Y134.525 F800.000
G1 X-60.969 Y134.431 F800.000
G1 X-60.869 Y134.244 F800.000
G1 X-60.725 Y134.113 F800.000
G1 X-60.519 Y134.019 F800.000
G1 X-60.319 Y134.000 F800.000
G1 X60.419 Y134.006 F800.000
G1 X60.569 Y134.031 F800.000
G1 X60.744 Y134.119 F800.000
G1 X60.881 Y134.262 F800.000
G1 X60.975 Y134.463 F800.000
G1 X61.000 Y134.637 F800.000
G1 X60.987 Y145.475 F800.000
G1 X60.931 Y145.662 F800.000
G1 X60.881 Y145.744 F800.000
G1 X60.737 Y145.881 F800.000
G1 X60.519 Y145.981 F800.000
G1 X60.319 Y146.000 F800.000
G1 X-60.475 Y145.988 F800.000
G1 X-60.569 Y145.969 F800.000
G1 X-60.675 Y145.925 F800.000
G1 X-60.750 Y145.875 F800.000
G1 X-60.900 Y145.706 F800.000
G1 X-60.975 Y145.550 F800.000
G1 X-60.987 Y145.488 F800.000
G1 X-60.987 Y145.488 F800.000
G1 Z25.000 F1000.000
G1 Z25.000 F1000.000
(finish operation: Adaptive)
(begin operation: Profile)
(machine: mach3_4, mm/min)
(Profile)
(Compensated Tool Path. Diameter: 8.0)
G0 Z25.000
G0 X61.000 Y126.000
G0 Z23.000
G1 X61.000 Y126.000 Z15.833 F800.000
G1 X-61.000 Y126.000 Z15.833 F800.000
G0 Z25.000
G0 X61.000 Y126.000
G0 Z23.000
G1 X61.000 Y126.000 Z12.667 F800.000
G1 X-61.000 Y126.000 Z12.667 F800.000
G0 Z25.000
G0 X61.000 Y126.000
G0 Z23.000
G1 X61.000 Y126.000 Z9.500 F800.000
G1 X-61.000 Y126.000 Z9.500 F800.000
G0 Z25.000
G0 X61.000 Y126.000
G0 Z23.000
G1 X61.000 Y126.000 Z6.333 F800.000
G1 X-61.000 Y126.000 Z6.333 F800.000
G0 Z25.000
G0 X61.000 Y126.000
G0 Z23.000
G1 X61.000 Y126.000 Z6.000 F800.000
G1 X-61.000 Y126.000 Z6.000 F800.000
G0 Z25.000
G0 Z25.000
G0 X-61.000 Y126.000
G0 Z23.000
G1 X-61.000 Y126.000 Z15.833 F800.000
G1 X-61.000 Y24.000 Z15.833 F800.000
G1 X61.000 Y24.000 Z15.833 F800.000
G1 X61.000 Y126.000 Z15.833 F800.000
G0 Z25.000
G0 X-61.000 Y126.000
G0 Z23.000
G1 X-61.000 Y126.000 Z12.667 F800.000
G1 X-61.000 Y24.000 Z12.667 F800.000
G1 X61.000 Y24.000 Z12.667 F800.000
G1 X61.000 Y126.000 Z12.667 F800.000
G0 Z25.000
G0 X-61.000 Y126.000
G0 Z23.000
G1 X-61.000 Y126.000 Z9.500 F800.000
G1 X-61.000 Y24.000 Z9.500 F800.000
G1 X61.000 Y24.000 Z9.500 F800.000
G1 X61.000 Y126.000 Z9.500 F800.000
G0 Z25.000
G0 X-61.000 Y126.000
G0 Z23.000
G1 X-61.000 Y126.000 Z6.333 F800.000
G1 X-61.000 Y24.000 Z6.333 F800.000
G1 X61.000 Y24.000 Z6.333 F800.000
G1 X61.000 Y126.000 Z6.333 F800.000
G0 Z25.000
G0 X-61.000 Y126.000
G0 Z23.000
G1 X-61.000 Y126.000 Z6.000 F800.000
G1 X-61.000 Y24.000 Z6.000 F800.000
G1 X61.000 Y24.000 Z6.000 F800.000
G1 X61.000 Y126.000 Z6.000 F800.000
G0 Z25.000
G0 Z25.000
(finish operation: Profile)
(begin operation: Profile001)
(machine: mach3_4, mm/min)
(Profile001)
(Compensated Tool Path. Diameter: 8.0)
G0 Z25.000
G0 X86.224 Y198.589
G0 Z23.000
G1 X86.224 Y198.589 Z15.833 F800.000
G2 X91.660 Y196.139 Z15.833 I-86.224 J-198.589 F800.000
G2 X94.000 Y192.500 Z15.833 I-1.660 J-3.639 F800.000
G1 X94.000 Y-63.793 Z15.833 F800.000
G2 X91.236 Y-67.597 Z15.833 I-4.000 J-0.000 F800.000
G2 X88.000 Y-67.257 Z15.833 I-1.236 J3.804 F800.000
G1 X48.024 Y-44.177 Z15.833 F800.000
G3 X-48.024 Y-44.177 Z15.833 I-48.024 J-83.128 F800.000
G1 X-88.000 Y-67.257 Z15.833 F800.000
G2 X-94.000 Y-63.793 Z15.833 I-2.000 J3.464 F800.000
G1 X-94.000 Y192.500 Z15.833 F800.000
G2 X-91.660 Y196.139 Z15.833 I4.000 J-0.000 F800.000
G2 X86.224 Y198.589 Z15.833 I91.660 J-196.139 F800.000
G1 X86.224 Y198.589 Z12.667 F800.000
G2 X91.660 Y196.139 Z12.667 I-86.224 J-198.589 F800.000
G2 X94.000 Y192.500 Z12.667 I-1.660 J-3.639 F800.000
G1 X94.000 Y-63.793 Z12.667 F800.000
G2 X91.236 Y-67.597 Z12.667 I-4.000 J-0.000 F800.000
G2 X88.000 Y-67.257 Z12.667 I-1.236 J3.804 F800.000
G1 X48.024 Y-44.177 Z12.667 F800.000
G3 X-48.024 Y-44.177 Z12.667 I-48.024 J-83.128 F800.000
G1 X-88.000 Y-67.257 Z12.667 F800.000
G2 X-94.000 Y-63.793 Z12.667 I-2.000 J3.464 F800.000
G1 X-94.000 Y192.500 Z12.667 F800.000
G2 X-91.660 Y196.139 Z12.667 I4.000 J-0.000 F800.000
G2 X86.224 Y198.589 Z12.667 I91.660 J-196.139 F800.000
G1 X86.224 Y198.589 Z9.500 F800.000
G2 X91.660 Y196.139 Z9.500 I-86.224 J-198.589 F800.000
G2 X94.000 Y192.500 Z9.500 I-1.660 J-3.639 F800.000
G1 X94.000 Y-63.793 Z9.500 F800.000
G2 X91.236 Y-67.597 Z9.500 I-4.000 J-0.000 F800.000
G2 X88.000 Y-67.257 Z9.500 I-1.236 J3.804 F800.000
G1 X48.024 Y-44.177 Z9.500 F800.000
G3 X-48.024 Y-44.177 Z9.500 I-48.024 J-83.128 F800.000
G1 X-88.000 Y-67.257 Z9.500 F800.000
G2 X-94.000 Y-63.793 Z9.500 I-2.000 J3.464 F800.000
G1 X-94.000 Y192.500 Z9.500 F800.000
G2 X-91.660 Y196.139 Z9.500 I4.000 J-0.000 F800.000
G2 X86.224 Y198.589 Z9.500 I91.660 J-196.139 F800.000
G1 X86.224 Y198.589 Z6.333 F800.000
G2 X91.660 Y196.139 Z6.333 I-86.224 J-198.589 F800.000
G2 X94.000 Y192.500 Z6.333 I-1.660 J-3.639 F800.000
G1 X94.000 Y-63.793 Z6.333 F800.000
G2 X91.236 Y-67.597 Z6.333 I-4.000 J-0.000 F800.000
G2 X88.000 Y-67.257 Z6.333 I-1.236 J3.804 F800.000
G1 X48.024 Y-44.177 Z6.333 F800.000
G3 X-48.024 Y-44.177 Z6.333 I-48.024 J-83.128 F800.000
G1 X-88.000 Y-67.257 Z6.333 F800.000
G2 X-94.000 Y-63.793 Z6.333 I-2.000 J3.464 F800.000
G1 X-94.000 Y192.500 Z6.333 F800.000
G2 X-91.660 Y196.139 Z6.333 I4.000 J-0.000 F800.000
G2 X86.224 Y198.589 Z6.333 I91.660 J-196.139 F800.000
G1 X86.224 Y198.589 Z3.167 F800.000
G2 X91.660 Y196.139 Z3.167 I-86.224 J-198.589 F800.000
G2 X94.000 Y192.500 Z3.167 I-1.660 J-3.639 F800.000
G1 X94.000 Y-63.793 Z3.167 F800.000
G2 X91.236 Y-67.597 Z3.167 I-4.000 J-0.000 F800.000
G2 X88.000 Y-67.257 Z3.167 I-1.236 J3.804 F800.000
G1 X48.024 Y-44.177 Z3.167 F800.000
G3 X-48.024 Y-44.177 Z3.167 I-48.024 J-83.128 F800.000
G1 X-88.000 Y-67.257 Z3.167 F800.000
G2 X-94.000 Y-63.793 Z3.167 I-2.000 J3.464 F800.000
G1 X-94.000 Y192.500 Z3.167 F800.000
G2 X-91.660 Y196.139 Z3.167 I4.000 J-0.000 F800.000
G2 X86.224 Y198.589 Z3.167 I91.660 J-196.139 F800.000
G1 X86.224 Y198.589 Z0.000 F800.000
G2 X91.660 Y196.139 Z0.000 I-86.224 J-198.589 F800.000
G2 X94.000 Y192.500 Z0.000 I-1.660 J-3.639 F800.000
G1 X94.000 Y-63.793 Z0.000 F800.000
G2 X91.236 Y-67.597 Z0.000 I-4.000 J-0.000 F800.000
G2 X88.000 Y-67.257 Z0.000 I-1.236 J3.804 F800.000
G1 X48.024 Y-44.177 Z0.000 F800.000
G3 X-48.024 Y-44.177 Z0.000 I-48.024 J-83.128 F800.000
G1 X-88.000 Y-67.257 Z0.000 F800.000
G2 X-94.000 Y-63.793 Z0.000 I-2.000 J3.464 F800.000
G1 X-94.000 Y192.500 Z0.000 F800.000
G2 X-91.660 Y196.139 Z0.000 I4.000 J-0.000 F800.000
G2 X86.224 Y198.589 Z0.000 I91.660 J-196.139 F800.000
G0 Z25.000
G0 Z25.000
(finish operation: Profile001)
(begin postamble)
M05
G17 G54 G90 G80 G40
M2
